Tree Id ,species,,VolCropped,AGB (from reference) [kg],"WD (plus WD method, ie database, discs, increment cores etc)",Vol=AGB/WD(reference)[m^3],height(TLS),dbh(TLS),volume(TLS),qsmType,denoising,cloudCondtion,publication,dbhField,software
FEXC1,FEXC,0,708.5891,705.5,0.859470687185182,708.5891,27.37465021,0.26598,752.912,CROPPED,DEMOL,LEAVE_OFF,Demol,0.26598,SimpleForestRp
FEXC10,FEXC,0,79.34602,61.5,0.735507871286317,79.34602,12.5732405,0.1230145,88.371,CROPPED,DEMOL,LEAVE_OFF,Demol,0.1230145,SimpleForestRp
FEXC11,FEXC,0,470.9156,474,0.891345081039244,470.9156,25.78310078,0.2532732,537.381,CROPPED,DEMOL,LEAVE_OFF,Demol,0.2532732,SimpleForestRp
FEXC13,FEXC,0,832.6981,904,0.906844976737554,832.6981,35.33239737,0.3391767,818.083,CROPPED,DEMOL,LEAVE_OFF,Demol,0.3391767,SimpleForestRp
FEXC14,FEXC,0,1493.46,1444,0.904342034005068,1493.46,39.78873577,0.3162182,1768.81,CROPPED,DEMOL,LEAVE_OFF,Demol,0.3162182,SimpleForestRp
FEXC15,FEXC,0,1041.958,905.872,0.865152853828537,1041.958,33.74084794,0.3396215,1000.347,CROPPED,DEMOL,LEAVE_OFF,Demol,0.3396215,SimpleForestRp
FEXC16,FEXC,0,409.578,406,0.8155662318134,409.578,22.60000192,0.2264752,389.465,CROPPED,DEMOL,LEAVE_OFF,Demol,0.2264752,SimpleForestRp
FEXC2,FEXC,0,409.1078,416.101,0.844148599665061,409.1078,22.60000192,0.2234039,371.464,CROPPED,DEMOL,LEAVE_OFF,Demol,0.2234039,SimpleForestRp
FEXC3,FEXC,0,264.3445,239.698,0.816845355345099,264.3445,19.41690306,0.1822327,265.37,CROPPED,DEMOL,LEAVE_OFF,Demol,0.1822327,SimpleForestRp
FEXC4,FEXC,0,297.6163,266.02,0.769786134429185,297.6163,20.37183272,0.1976937,335.64,CROPPED,DEMOL,LEAVE_OFF,Demol,0.1976937,SimpleForestRp
FEXC5,FEXC,0,66.77336,61.946,0.797115650331053,66.77336,11.4591559,0.1209352,61.21,CROPPED,DEMOL,LEAVE_OFF,Demol,0.1209352,SimpleForestRp
FEXC6,FEXC,0,617.8378,543,0.851895110734517,617.8378,30.87605896,0.3025819,598.787,CROPPED,DEMOL,LEAVE_OFF,Demol,0.3025819,SimpleForestRp
FEXC7,FEXC,0,63.75929,77.055,0.782105152000416,63.75929,12.41408556,0.1277185,81.331,CROPPED,DEMOL,LEAVE_OFF,Demol,0.1277185,SimpleForestRp
FEXC8,FEXC,0,773.2273,789.621,0.833145027455031,773.2273,28.64788976,0.2804034,677.775,CROPPED,DEMOL,LEAVE_OFF,Demol,0.2804034,SimpleForestRp
FEXC9,FEXC,0,338.3267,300.093,0.850291350715112,338.3267,19.73521294,0.1934259,374.639,CROPPED,DEMOL,LEAVE_OFF,Demol,0.1934259,SimpleForestRp
FSYL1,FSYL,0,916.5045,939.5,1.08208979546957,916.5045,31.19436885,0.3100417,876.645,CROPPED,DEMOL,LEAVE_OFF,Demol,0.3100417,SimpleForestRp
FSYL10,FSYL,0,1826.817,2102.5,0.999697295800099,1826.817,38.51549623,0.3869701,1923.895,CROPPED,DEMOL,LEAVE_OFF,Demol,0.3869701,SimpleForestRp
FSYL11,FSYL,0,991.7405,1067.821,1.05001843006716,991.7405,32.78591828,0.3207472,1016.772,CROPPED,DEMOL,LEAVE_OFF,Demol,0.3207472,SimpleForestRp
FSYL12,FSYL,0,744.8864,877.5,1.03225401323297,744.8864,27.37465021,0.2699659,765.466,CROPPED,DEMOL,LEAVE_OFF,Demol,0.2699659,SimpleForestRp
FSYL13,FSYL,0,1480.334,1926.012,1.07556152730859,1480.334,37.71972151,0.3768889,1764.809,CROPPED,DEMOL,LEAVE_OFF,Demol,0.3768889,SimpleForestRp
FSYL14,FSYL,0,1214.052,1544.5,1.06435281773431,1214.052,34.69577759,0.3513099,1364.405,CROPPED,DEMOL,LEAVE_OFF,Demol,0.3513099,SimpleForestRp
FSYL15,FSYL,0,539.9117,659,1.01043981518409,539.9117,28.01126998,0.2664315,678.386,CROPPED,DEMOL,LEAVE_OFF,Demol,0.2664315,SimpleForestRp
FSYL2,FSYL,0,654.1058,743.7864,1.06228443654588,654.1058,26.10141067,0.2706045,709.729,CROPPED,DEMOL,LEAVE_OFF,Demol,0.2706045,SimpleForestRp
FSYL3,FSYL,0,754.752,804.273,0.949521570383315,754.752,30.87605896,0.3062824,972.119,CROPPED,DEMOL,LEAVE_OFF,Demol,0.3062824,SimpleForestRp
FSYL4,FSYL,0,583.8979,712.5,1.04325110923153,583.8979,25.46479089,0.2518081,650.034,CROPPED,DEMOL,LEAVE_OFF,Demol,0.2518081,SimpleForestRp
FSYL5,FSYL,0,785.8494,902,0.99789828386641,785.8494,28.96619964,0.2885585,795.731,CROPPED,DEMOL,LEAVE_OFF,Demol,0.2885585,SimpleForestRp
FSYL6,FSYL,0,697.3055,867.532,1.07324807383038,697.3055,27.6929601,0.2744146,793.476,CROPPED,DEMOL,LEAVE_OFF,Demol,0.2744146,SimpleForestRp
FSYL7,FSYL,0,891.0674,1007.5,1.0444428694155,891.0674,30.87605896,0.3078256,933.007,CROPPED,DEMOL,LEAVE_OFF,Demol,0.3078256,SimpleForestRp
FSYL8,FSYL,0,1150.311,1272,0.989084880110393,1150.311,32.1492985,0.3199069,1231.191,CROPPED,DEMOL,LEAVE_OFF,Demol,0.3199069,SimpleForestRp
FSYL9,FSYL,0,1141.664,1262.7,0.998127756507074,1141.664,32.94507322,0.3307565,1091.085,CROPPED,DEMOL,LEAVE_OFF,Demol,0.3307565,SimpleForestRp
LXDC1,LXDC,0,786.6015,1050,0.862027888936488,786.6015,32.1492985,0.3146609,757.672,CROPPED,DEMOL,LEAVE_OFF,Demol,0.3146609,SimpleForestRp
LXDC2,LXDC,0,511.9204,544,0.856563900079316,511.9204,26.41972055,0.2538593,527.869,CROPPED,DEMOL,LEAVE_OFF,Demol,0.2538593,SimpleForestRp
LXDC3,LXDC,0,522.7537,481.5,0.882043432716492,522.7537,25.14648101,0.2379826,489.232,CROPPED,DEMOL,LEAVE_OFF,Demol,0.2379826,SimpleForestRp
LXDC4,LXDC,0,452.8155,499,0.887488158786757,452.8155,23.55493158,0.2238993,449.89,CROPPED,DEMOL,LEAVE_OFF,Demol,0.2238993,SimpleForestRp
LXDC5,LXDC,0,657.3591,758,0.836666464275691,657.3591,29.60281942,0.2826534,665.484,CROPPED,DEMOL,LEAVE_OFF,Demol,0.2826534,SimpleForestRp
PSYLA1,PSYLA,0,446.7591,594.5,0.899270052738133,446.7591,26.10141067,0.2438799,474.909,CROPPED,DEMOL,LEAVE_OFF,Demol,0.2438799,SimpleForestRp
PSYLA10,PSYLA,0,446.7502,492,0.830712906126154,446.7502,26.73803044,0.2480673,496.273,CROPPED,DEMOL,LEAVE_OFF,Demol,0.2480673,SimpleForestRp
PSYLA11,PSYLA,0,560.2303,690.471,0.886078196440446,560.2303,28.96619964,0.264538,626.289,CROPPED,DEMOL,LEAVE_OFF,Demol,0.264538,SimpleForestRp
PSYLA12,PSYLA,0,699.8865,859.9784,0.880507098579731,699.8865,31.19436885,0.2943401,795.158,CROPPED,DEMOL,LEAVE_OFF,Demol,0.2943401,SimpleForestRp
PSYLA13,PSYLA,0,1087.26,1209.673,0.924707735077739,1087.26,36.28732702,0.3603055,1172.316,CROPPED,DEMOL,LEAVE_OFF,Demol,0.3603055,SimpleForestRp
PSYLA14,PSYLA,0,565.4342,670.5,0.87003396116022,565.4342,28.17042493,0.2728519,607.524,CROPPED,DEMOL,LEAVE_OFF,Demol,0.2728519,SimpleForestRp
PSYLA15,PSYLA,0,639.1232,813.672,0.897125728492694,639.1232,30.87605896,0.289162,688.704,CROPPED,DEMOL,LEAVE_OFF,Demol,0.289162,SimpleForestRp
PSYLA2,PSYLA,0,792.1306,1084,0.903004892475824,792.1306,34.37746771,0.3216881,833.686,CROPPED,DEMOL,LEAVE_OFF,Demol,0.3216881,SimpleForestRp
PSYLA3,PSYLA,0,684.3682,968.652,0.888445805822874,684.3682,33.10422816,0.3077772,757.283,CROPPED,DEMOL,LEAVE_OFF,Demol,0.3077772,SimpleForestRp
PSYLA4,PSYLA,0,675.0959,854,0.895139186194388,675.0959,32.1492985,0.296988,764.257,CROPPED,DEMOL,LEAVE_OFF,Demol,0.296988,SimpleForestRp
PSYLA5,PSYLA,0,872.3292,1083,0.858006838301509,872.3292,35.33239737,0.3339938,936.497,CROPPED,DEMOL,LEAVE_OFF,Demol,0.3339938,SimpleForestRp
PSYLA6,PSYLA,0,1054.664,1292.5,0.906477978739498,1054.664,38.51549623,0.3639466,1111.057,CROPPED,DEMOL,LEAVE_OFF,Demol,0.3639466,SimpleForestRp
PSYLA7,PSYLA,0,793.0059,794,0.868171272969124,793.0059,32.1492985,0.3016522,822.448,CROPPED,DEMOL,LEAVE_OFF,Demol,0.3016522,SimpleForestRp
PSYLA8,PSYLA,0,442.564,550.489,0.910817590496105,442.564,25.14648101,0.2336835,493.695,CROPPED,DEMOL,LEAVE_OFF,Demol,0.2336835,SimpleForestRp
PSYLA9,PSYLA,0,385.8458,504,0.869144011881097,385.8458,25.14648101,0.2298853,423.855,CROPPED,DEMOL,LEAVE_OFF,Demol,0.2298853,SimpleForestRp
PSYLB1,PSYLB,0,605.8799,672.5,0.904357658667934,605.8799,28.17042493,0.2781991,668.699,CROPPED,DEMOL,LEAVE_OFF,Demol,0.2781991,SimpleForestRp
PSYLB10,PSYLB,0,594.2472,591.5,0.856689299919564,594.2472,28.96619964,0.2794355,678.888,CROPPED,DEMOL,LEAVE_OFF,Demol,0.2794355,SimpleForestRp
PSYLB11,PSYLB,0,2215.655,2428,0.859997431393708,2215.655,46.63239833,0.4466638,2276.791,CROPPED,DEMOL,LEAVE_OFF,Demol,0.4466638,SimpleForestRp
PSYLB12,PSYLB,0,962.2311,1068.5,0.857614162427529,962.2311,35.17324242,0.3336569,1106.089,CROPPED,DEMOL,LEAVE_OFF,Demol,0.3336569,SimpleForestRp
PSYLB13,PSYLB,0,494.5125,471.14,0.813963472239766,494.5125,25.46479089,0.2500365,550.472,CROPPED,DEMOL,LEAVE_OFF,Demol,0.2500365,SimpleForestRp
PSYLB14,PSYLB,0,1823.919,1892.687,0.894894275098785,1823.919,44.08591924,0.4367359,2014.615,CROPPED,DEMOL,LEAVE_OFF,Demol,0.4367359,SimpleForestRp
PSYLB15,PSYLB,0,108.1602,92.5,0.785590855388656,108.1602,14.00563499,0.1350402,132.683,CROPPED,DEMOL,LEAVE_OFF,Demol,0.1350402,SimpleForestRp
PSYLB2,PSYLB,0,1269.313,1398,0.911912227843444,1269.313,37.40141163,0.3573953,1499.804,CROPPED,DEMOL,LEAVE_OFF,Demol,0.3573953,SimpleForestRp
PSYLB3,PSYLB,0,2209.281,2216,0.848797648578859,2209.281,42.17605992,0.4160894,2119.174,CROPPED,DEMOL,LEAVE_OFF,Demol,0.4160894,SimpleForestRp
PSYLB4,PSYLB,0,1205.502,1226.704,0.888107240992577,1205.502,36.12817208,0.3423498,1445.106,CROPPED,DEMOL,LEAVE_OFF,Demol,0.3423498,SimpleForestRp
PSYLB5,PSYLB,0,491.9461,519.5,0.864692699335578,491.9461,25.46479089,0.2296095,528.305,CROPPED,DEMOL,LEAVE_OFF,Demol,0.2296095,SimpleForestRp
PSYLB6,PSYLB,0,820.9727,867.657,0.873886370096483,820.9727,30.08028424,0.295043,901.417,CROPPED,DEMOL,LEAVE_OFF,Demol,0.295043,SimpleForestRp
PSYLB7,PSYLB,0,783.4409,805.5,0.873678990759346,783.4409,30.87605896,0.3043626,876.045,CROPPED,DEMOL,LEAVE_OFF,Demol,0.3043626,SimpleForestRp
PSYLB8,PSYLB,0,296.1635,317,0.898711658670557,296.1635,19.89436789,0.1935383,321.305,CROPPED,DEMOL,LEAVE_OFF,Demol,0.1935383,SimpleForestRp
PSYLB9,PSYLB,0,259.5025,241.554,0.858732641163567,259.5025,18.14366351,0.195174,245.175,CROPPED,DEMOL,LEAVE_OFF,Demol,0.195174,SimpleForestRp
FEXC1,FEXC,820.854056478127,0,705.5,0.859470687185182,820.854056478127,27.37465021,0.26598,845.494,FULL,DEMOL,LEAVE_OFF,Demol,0.26598,SimpleForestRp
FEXC10,FEXC,83.6156925043422,0,61.5,0.735507871286317,83.6156925043422,12.5732405,0.1230145,105.406,FULL,DEMOL,LEAVE_OFF,Demol,0.1230145,SimpleForestRp
FEXC11,FEXC,531.780575315848,0,474,0.891345081039244,531.780575315848,25.78310078,0.2532732,621.92,FULL,DEMOL,LEAVE_OFF,Demol,0.2532732,SimpleForestRp
FEXC13,FEXC,996.862774994036,0,904,0.906844976737554,996.862774994036,35.33239737,0.3391767,949.746,FULL,DEMOL,LEAVE_OFF,Demol,0.3391767,SimpleForestRp
FEXC14,FEXC,1596.7409958873,0,1444,0.904342034005068,1596.7409958873,39.78873577,0.3162182,2192.513,FULL,DEMOL,LEAVE_OFF,Demol,0.3162182,SimpleForestRp
FEXC15,FEXC,1047.06584043648,0,905.872,0.865152853828537,1047.06584043648,33.74084794,0.3396215,1129.801,FULL,DEMOL,LEAVE_OFF,Demol,0.3396215,SimpleForestRp
FEXC16,FEXC,497.81364671912,0,406,0.8155662318134,497.81364671912,22.60000192,0.2264752,485.333,FULL,DEMOL,LEAVE_OFF,Demol,0.2264752,SimpleForestRp
FEXC2,FEXC,492.923876394629,0,416.101,0.844148599665061,492.923876394629,22.60000192,0.2234039,450.606,FULL,DEMOL,LEAVE_OFF,Demol,0.2234039,SimpleForestRp
FEXC3,FEXC,293.44354893067,0,239.698,0.816845355345099,293.44354893067,19.41690306,0.1822327,300.762,FULL,DEMOL,LEAVE_OFF,Demol,0.1822327,SimpleForestRp
FEXC4,FEXC,345.576502488266,0,266.02,0.769786134429185,345.576502488266,20.37183272,0.1976937,394.262,FULL,DEMOL,LEAVE_OFF,Demol,0.1976937,SimpleForestRp
FEXC5,FEXC,77.7126882081326,0,61.946,0.797115650331053,77.7126882081326,11.4591559,0.1209352,98.252,FULL,DEMOL,LEAVE_OFF,Demol,0.1209352,SimpleForestRp
FEXC6,FEXC,637.402413933115,0,543,0.851895110734517,637.402413933115,30.87605896,0.3025819,671.363,FULL,DEMOL,LEAVE_OFF,Demol,0.3025819,SimpleForestRp
FEXC7,FEXC,98.5225577442035,0,77.055,0.782105152000416,98.5225577442035,12.41408556,0.1277185,108.325,FULL,DEMOL,LEAVE_OFF,Demol,0.1277185,SimpleForestRp
FEXC8,FEXC,947.759362390985,0,789.621,0.833145027455031,947.759362390985,28.64788976,0.2804034,859.887,FULL,DEMOL,LEAVE_OFF,Demol,0.2804034,SimpleForestRp
FEXC9,FEXC,352.929616122304,0,300.093,0.850291350715112,352.929616122304,19.73521294,0.1934259,414.891,FULL,DEMOL,LEAVE_OFF,Demol,0.1934259,SimpleForestRp
FSYL1,FSYL,868.227391047811,0,939.5,1.08208979546957,868.227391047811,31.19436885,0.3100417,971.365,FULL,DEMOL,LEAVE_OFF,Demol,0.3100417,SimpleForestRp
FSYL10,FSYL,2103.13662829035,0,2102.5,0.999697295800099,2103.13662829035,38.51549623,0.3869701,2117.031,FULL,DEMOL,LEAVE_OFF,Demol,0.3869701,SimpleForestRp
FSYL11,FSYL,1016.954530914,0,1067.821,1.05001843006716,1016.954530914,32.78591828,0.3207472,1086.275,FULL,DEMOL,LEAVE_OFF,Demol,0.3207472,SimpleForestRp
FSYL12,FSYL,850.081461298186,0,877.5,1.03225401323297,850.081461298186,27.37465021,0.2699659,932.658,FULL,DEMOL,LEAVE_OFF,Demol,0.2699659,SimpleForestRp
FSYL13,FSYL,1790.70369392955,0,1926.012,1.07556152730859,1790.70369392955,37.71972151,0.3768889,2000.3,FULL,DEMOL,LEAVE_OFF,Demol,0.3768889,SimpleForestRp
FSYL14,FSYL,1451.11656047266,0,1544.5,1.06435281773431,1451.11656047266,34.69577759,0.3513099,1549.32,FULL,DEMOL,LEAVE_OFF,Demol,0.3513099,SimpleForestRp
FSYL15,FSYL,652.191243948493,0,659,1.01043981518409,652.191243948493,28.01126998,0.2664315,768.427,FULL,DEMOL,LEAVE_OFF,Demol,0.2664315,SimpleForestRp
FSYL2,FSYL,700.176312870113,0,743.7864,1.06228443654588,700.176312870113,26.10141067,0.2706045,788.567,FULL,DEMOL,LEAVE_OFF,Demol,0.2706045,SimpleForestRp
FSYL3,FSYL,847.029730641423,0,804.273,0.949521570383315,847.029730641423,30.87605896,0.3062824,1046.525,FULL,DEMOL,LEAVE_OFF,Demol,0.3062824,SimpleForestRp
FSYL4,FSYL,682.961171759345,0,712.5,1.04325110923153,682.961171759345,25.46479089,0.2518081,762.244,FULL,DEMOL,LEAVE_OFF,Demol,0.2518081,SimpleForestRp
FSYL5,FSYL,903.89974066811,0,902,0.99789828386641,903.89974066811,28.96619964,0.2885585,943.645,FULL,DEMOL,LEAVE_OFF,Demol,0.2885585,SimpleForestRp
FSYL6,FSYL,808.323835983057,0,867.532,1.07324807383038,808.323835983057,27.6929601,0.2744146,904.262,FULL,DEMOL,LEAVE_OFF,Demol,0.2744146,SimpleForestRp
FSYL7,FSYL,964.629114241383,0,1007.5,1.0444428694155,964.629114241383,30.87605896,0.3078256,1029.38,FULL,DEMOL,LEAVE_OFF,Demol,0.3078256,SimpleForestRp
FSYL8,FSYL,1286.03725077471,0,1272,0.989084880110393,1286.03725077471,32.1492985,0.3199069,1336.903,FULL,DEMOL,LEAVE_OFF,Demol,0.3199069,SimpleForestRp
FSYL9,FSYL,1265.06851629774,0,1262.7,0.998127756507074,1265.06851629774,32.94507322,0.3307565,1263.348,FULL,DEMOL,LEAVE_OFF,Demol,0.3307565,SimpleForestRp
LXDC1,LXDC,1218.05803904491,0,1050,0.862027888936488,1218.05803904491,32.1492985,0.3146609,1022.166,FULL,DEMOL,LEAVE_OFF,Demol,0.3146609,SimpleForestRp
LXDC2,LXDC,635.095641959259,0,544,0.856563900079316,635.095641959259,26.41972055,0.2538593,634.821,FULL,DEMOL,LEAVE_OFF,Demol,0.2538593,SimpleForestRp
LXDC3,LXDC,545.89148577082,0,481.5,0.882043432716492,545.89148577082,25.14648101,0.2379826,620.365,FULL,DEMOL,LEAVE_OFF,Demol,0.2379826,SimpleForestRp
LXDC4,LXDC,562.261022932587,0,499,0.887488158786757,562.261022932587,23.55493158,0.2238993,567.011,FULL,DEMOL,LEAVE_OFF,Demol,0.2238993,SimpleForestRp
LXDC5,LXDC,905.976314774618,0,758,0.836666464275691,905.976314774618,29.60281942,0.2826534,867.923,FULL,DEMOL,LEAVE_OFF,Demol,0.2826534,SimpleForestRp
PSYLA1,PSYLA,661.091735669217,0,594.5,0.899270052738133,661.091735669217,26.10141067,0.2438799,527.305,FULL,DEMOL,LEAVE_OFF,Demol,0.2438799,SimpleForestRp
PSYLA10,PSYLA,592.262376534311,0,492,0.830712906126154,592.262376534311,26.73803044,0.2480673,548.306,FULL,DEMOL,LEAVE_OFF,Demol,0.2480673,SimpleForestRp
PSYLA11,PSYLA,779.243866708108,0,690.471,0.886078196440446,779.243866708108,28.96619964,0.264538,685.332,FULL,DEMOL,LEAVE_OFF,Demol,0.264538,SimpleForestRp
PSYLA12,PSYLA,976.685368450926,0,859.9784,0.880507098579731,976.685368450926,31.19436885,0.2943401,852.517,FULL,DEMOL,LEAVE_OFF,Demol,0.2943401,SimpleForestRp
PSYLA13,PSYLA,1308.16792605104,0,1209.673,0.924707735077739,1308.16792605104,36.28732702,0.3603055,1217.157,FULL,DEMOL,LEAVE_OFF,Demol,0.3603055,SimpleForestRp
PSYLA14,PSYLA,770.659571846903,0,670.5,0.87003396116022,770.659571846903,28.17042493,0.2728519,648.268,FULL,DEMOL,LEAVE_OFF,Demol,0.2728519,SimpleForestRp
PSYLA15,PSYLA,906.976552068227,0,813.672,0.897125728492694,906.976552068227,30.87605896,0.289162,740.984,FULL,DEMOL,LEAVE_OFF,Demol,0.289162,SimpleForestRp
PSYLA2,PSYLA,1200.43646389105,0,1084,0.903004892475824,1200.43646389105,34.37746771,0.3216881,936.929,FULL,DEMOL,LEAVE_OFF,Demol,0.3216881,SimpleForestRp
PSYLA3,PSYLA,1090.27696866984,0,968.652,0.888445805822874,1090.27696866984,33.10422816,0.3077772,841.523,FULL,DEMOL,LEAVE_OFF,Demol,0.3077772,SimpleForestRp
PSYLA4,PSYLA,954.041576071217,0,854,0.895139186194388,954.041576071217,32.1492985,0.296988,810.658,FULL,DEMOL,LEAVE_OFF,Demol,0.296988,SimpleForestRp
PSYLA5,PSYLA,1262.22770222191,0,1083,0.858006838301509,1262.22770222191,35.33239737,0.3339938,1031.483,FULL,DEMOL,LEAVE_OFF,Demol,0.3339938,SimpleForestRp
PSYLA6,PSYLA,1425.84820626011,0,1292.5,0.906477978739498,1425.84820626011,38.51549623,0.3639466,1188.954,FULL,DEMOL,LEAVE_OFF,Demol,0.3639466,SimpleForestRp
PSYLA7,PSYLA,914.566082432721,0,794,0.868171272969124,914.566082432721,32.1492985,0.3016522,880.155,FULL,DEMOL,LEAVE_OFF,Demol,0.3016522,SimpleForestRp
PSYLA8,PSYLA,604.389952218818,0,550.489,0.910817590496105,604.389952218818,25.14648101,0.2336835,537.916,FULL,DEMOL,LEAVE_OFF,Demol,0.2336835,SimpleForestRp
PSYLA9,PSYLA,579.880886378298,0,504,0.869144011881097,579.880886378298,25.14648101,0.2298853,460.968,FULL,DEMOL,LEAVE_OFF,Demol,0.2298853,SimpleForestRp
PSYLB1,PSYLB,743.621722616418,0,672.5,0.904357658667934,743.621722616418,28.17042493,0.2781991,723.895,FULL,DEMOL,LEAVE_OFF,Demol,0.2781991,SimpleForestRp
PSYLB10,PSYLB,690.448684319434,0,591.5,0.856689299919564,690.448684319434,28.96619964,0.2794355,727.943,FULL,DEMOL,LEAVE_OFF,Demol,0.2794355,SimpleForestRp
PSYLB11,PSYLB,2823.26424634222,0,2428,0.859997431393708,2823.26424634222,46.63239833,0.4466638,2393.482,FULL,DEMOL,LEAVE_OFF,Demol,0.4466638,SimpleForestRp
PSYLB12,PSYLB,1245.89826848888,0,1068.5,0.857614162427529,1245.89826848888,35.17324242,0.3336569,1171.158,FULL,DEMOL,LEAVE_OFF,Demol,0.3336569,SimpleForestRp
PSYLB13,PSYLB,578.822043086988,0,471.14,0.813963472239766,578.822043086988,25.46479089,0.2500365,578.898,FULL,DEMOL,LEAVE_OFF,Demol,0.2500365,SimpleForestRp
PSYLB14,PSYLB,2114.98391783887,0,1892.687,0.894894275098785,2114.98391783887,44.08591924,0.4367359,2127.419,FULL,DEMOL,LEAVE_OFF,Demol,0.4367359,SimpleForestRp
PSYLB15,PSYLB,117.745769780171,0,92.5,0.785590855388656,117.745769780171,14.00563499,0.1350402,146.447,FULL,DEMOL,LEAVE_OFF,Demol,0.1350402,SimpleForestRp
PSYLB2,PSYLB,1533.04227897688,0,1398,0.911912227843444,1533.04227897688,37.40141163,0.3573953,1598.095,FULL,DEMOL,LEAVE_OFF,Demol,0.3573953,SimpleForestRp
PSYLB3,PSYLB,2610.75181312089,0,2216,0.848797648578859,2610.75181312089,42.17605992,0.4160894,2314.446,FULL,DEMOL,LEAVE_OFF,Demol,0.4160894,SimpleForestRp
PSYLB4,PSYLB,1381.25661336687,0,1226.704,0.888107240992577,1381.25661336687,36.12817208,0.3423498,1512.231,FULL,DEMOL,LEAVE_OFF,Demol,0.3423498,SimpleForestRp
PSYLB5,PSYLB,600.791472391497,0,519.5,0.864692699335578,600.791472391497,25.46479089,0.2296095,548.708,FULL,DEMOL,LEAVE_OFF,Demol,0.2296095,SimpleForestRp
PSYLB6,PSYLB,992.871647493718,0,867.657,0.873886370096483,992.871647493718,30.08028424,0.295043,960.88,FULL,DEMOL,LEAVE_OFF,Demol,0.295043,SimpleForestRp
PSYLB7,PSYLB,921.963339532647,0,805.5,0.873678990759346,921.963339532647,30.87605896,0.3043626,980.907,FULL,DEMOL,LEAVE_OFF,Demol,0.3043626,SimpleForestRp
PSYLB8,PSYLB,352.72714773605,0,317,0.898711658670557,352.72714773605,19.89436789,0.1935383,345.217,FULL,DEMOL,LEAVE_OFF,Demol,0.1935383,SimpleForestRp
PSYLB9,PSYLB,281.291275562437,0,241.554,0.858732641163567,281.291275562437,18.14366351,0.195174,262.056,FULL,DEMOL,LEAVE_OFF,Demol,0.195174,SimpleForestRp
Ery_01.asc,Erythrophleum_fordii,405.014285714286,0,283.51,0.7,405.014285714286,15.361589,0.226028,372.736,FULL,SEMI AUTO,LEAVE_OFF,Hackenberg,22.4,SimpleForest
Ery_02.asc,Erythrophleum_fordii,323.287671232877,0,236,0.73,323.287671232877,17.090742,0.202012,341.705,FULL,SEMI AUTO,LEAVE_OFF,Hackenberg,19.5,SimpleForest
Ery_03.asc,Erythrophleum_fordii,382.514285714286,0,267.76,0.7,382.514285714286,14.226034,0.196768,284.744,FULL,SEMI AUTO,LEAVE_OFF,Hackenberg,19.75,SimpleForest
Ery_04.asc,Erythrophleum_fordii,439.173913043478,0,303.03,0.69,439.173913043478,16.589492,0.221874,476.863,FULL,SEMI AUTO,LEAVE_OFF,Hackenberg,21.1,SimpleForest
Ery_05.asc,Erythrophleum_fordii,754.275362318841,0,520.45,0.69,754.275362318841,17.701328,0.249274,560.407,FULL,SEMI AUTO,LEAVE_OFF,Hackenberg,26,SimpleForest
Ery_06.asc,Erythrophleum_fordii,210.432432432432,0,155.72,0.74,210.432432432432,13.301968,0.17261,185.033,FULL,SEMI AUTO,LEAVE_OFF,Hackenberg,17.7,SimpleForest
Ery_07.asc,Erythrophleum_fordii,360.098591549296,0,255.67,0.71,360.098591549296,14.238377,0.188826,257.675,FULL,SEMI AUTO,LEAVE_OFF,Hackenberg,18.2,SimpleForest
Ery_08.asc,Erythrophleum_fordii,597.811594202899,0,412.49,0.69,597.811594202899,14.041195,0.240856,482.969,FULL,SEMI AUTO,LEAVE_OFF,Hackenberg,23.1,SimpleForest
Ery_09.asc,Erythrophleum_fordii,632.714285714286,0,442.9,0.7,632.714285714286,18.771032,0.23578,497.412,FULL,SEMI AUTO,LEAVE_OFF,Hackenberg,23.25,SimpleForest
Ery_10.asc,Erythrophleum_fordii,748.871428571429,0,524.21,0.7,748.871428571429,18.758336,0.248718,591.48,FULL,SEMI AUTO,LEAVE_OFF,Hackenberg,26,SimpleForest
Ery_11.asc,Erythrophleum_fordii,514.828571428571,0,360.38,0.7,514.828571428571,17.513662,0.21473,426.104,FULL,SEMI AUTO,LEAVE_OFF,Hackenberg,21.75,SimpleForest
Ery_12.asc,Erythrophleum_fordii,443.619718309859,0,314.97,0.71,443.619718309859,17.357473,0.20792,387.696,FULL,SEMI AUTO,LEAVE_OFF,Hackenberg,21,SimpleForest
Q01.asc,Quercus_petraea,865.698113207547,0,458.82,0.53,865.698113207547,24.31698,0.252514,1070.261,FULL,SEMI AUTO,LEAVE_OFF,Hackenberg,26,SimpleForest
Q02.asc,Quercus_petraea,598.134615384615,0,311.03,0.52,598.134615384615,25.18363,0.252218,973.674,FULL,SEMI AUTO,LEAVE_OFF,Hackenberg,24.3,SimpleForest
Q03.asc,Quercus_petraea,1144.84615384615,0,595.32,0.52,1144.84615384615,26.854396,0.323906,1735.096,FULL,SEMI AUTO,LEAVE_OFF,Hackenberg,32,SimpleForest
Q04.asc,Quercus_petraea,958.444444444444,0,517.56,0.54,958.444444444444,26.161319,0.271154,1062.634,FULL,SEMI AUTO,LEAVE_OFF,Hackenberg,27.8,SimpleForest
Q05.asc,Quercus_petraea,777.811320754717,0,412.24,0.53,777.811320754717,23.002166,0.29734,1336.586,FULL,SEMI AUTO,LEAVE_OFF,Hackenberg,29.1,SimpleForest
Q06.asc,Quercus_petraea,919.098039215686,0,468.74,0.51,919.098039215686,24.69681,0.268248,1050.247,FULL,SEMI AUTO,LEAVE_OFF,Hackenberg,28.3,SimpleForest
Q07.asc,Quercus_petraea,704.019230769231,0,366.09,0.52,704.019230769231,26.370292,0.254114,1132.572,FULL,SEMI AUTO,LEAVE_OFF,Hackenberg,25,SimpleForest
Q08.asc,Quercus_petraea,1241,0,632.91,0.51,1241,25.168037,0.308704,1445.543,FULL,SEMI AUTO,LEAVE_OFF,Hackenberg,31,SimpleForest
Q09.asc,Quercus_petraea,1118.76923076923,0,581.76,0.52,1118.76923076923,29.884805,0.305276,1637.969,FULL,SEMI AUTO,LEAVE_OFF,Hackenberg,30.2,SimpleForest
Q10.asc,Quercus_petraea,791.961538461538,0,411.82,0.52,791.961538461538,21.977618,0.272812,1257.943,FULL,SEMI AUTO,LEAVE_OFF,Hackenberg,27.1,SimpleForest
Q11.asc,Quercus_petraea,886.588235294118,0,452.16,0.51,886.588235294118,23.101982,0.263596,1168.804,FULL,SEMI AUTO,LEAVE_OFF,Hackenberg,27,SimpleForest
Q12.asc,Quercus_petraea,1112.37735849057,0,589.56,0.53,1112.37735849057,24.787277,0.272148,1660.856,FULL,SEMI AUTO,LEAVE_OFF,Hackenberg,30.8,SimpleForest
Pinus01.asc,Pinus_massoniana,722.974358974359,0,281.96,0.39,722.974358974359,15.558063,0.286884,705.341,FULL,AUTO,LEAVE_OFF,Hackenberg,23,SimpleForest
Pinus02.asc,Pinus_massoniana,284.375,0,113.75,0.4,284.375,15.319611,0.186622,384.262,FULL,AUTO,LEAVE_OFF,Hackenberg,16.75,SimpleForest
Pinus03.asc,Pinus_massoniana,336.391304347826,0,154.74,0.46,336.391304347826,15.738832,0.220454,503.418,FULL,AUTO,LEAVE_OFF,Hackenberg,22.4,SimpleForest
Pinus04.asc,Pinus_massoniana,340.463414634146,0,139.59,0.41,340.463414634146,16.707714,0.211234,440.605,FULL,AUTO,LEAVE_OFF,Hackenberg,20.25,SimpleForest
Pinus05.asc,Pinus_massoniana,403.04347826087,0,185.4,0.46,403.04347826087,14.604321,0.230906,453.686,FULL,AUTO,LEAVE_OFF,Hackenberg,21.4,SimpleForest
Pinus06.asc,Pinus_massoniana,516.317073170732,0,211.69,0.41,516.317073170732,15.543013,0.272998,778.302,FULL,AUTO,LEAVE_OFF,Hackenberg,26.15,SimpleForest
Pinus07.asc,Pinus_massoniana,364.311111111111,0,163.94,0.45,364.311111111111,11.919195,0.252114,439.873,FULL,AUTO,LEAVE_OFF,Hackenberg,22,SimpleForest
Pinus08.asc,Pinus_massoniana,93.974358974359,0,36.65,0.39,93.974358974359,12.543805,0.144758,173.367,FULL,AUTO,LEAVE_OFF,Hackenberg,13.3,SimpleForest
Pinus09.asc,Pinus_massoniana,379.80487804878,0,155.72,0.41,379.80487804878,13.542957,0.21382,403.253,FULL,AUTO,LEAVE_OFF,Hackenberg,19,SimpleForest
Pinus10.asc,Pinus_massoniana,352.596153846154,0,183.35,0.52,352.596153846154,14.918899,0.22777,477.678,FULL,AUTO,LEAVE_OFF,Hackenberg,23.25,SimpleForest
Pinus11.asc,Pinus_massoniana,558,0,234.36,0.42,558,14.874252,0.244148,475.256,FULL,AUTO,LEAVE_OFF,Hackenberg,25.25,SimpleForest
Pinus12.asc,Pinus_massoniana,298.780487804878,0,122.5,0.41,298.780487804878,17.44066,0.188824,301.338,FULL,AUTO,LEAVE_OFF,Hackenberg,17.75,SimpleForest
FEXC1,FEXC,820.854056478127,0,705.5,0.859470687185182,820.854056478127,22.019349,0.272254,989.674,FULL,DEMOL,LEAVE_OFF,Demol,0.26598,SimpleForest
FEXC10,FEXC,83.6156925043422,0,61.5,0.735507871286317,83.6156925043422,13.545362,0.115918,104.614,FULL,DEMOL,LEAVE_OFF,Demol,0.1230145,SimpleForest
FEXC11,FEXC,531.780575315848,0,474,0.891345081039244,531.780575315848,19.325983,0.257068,554.984,FULL,DEMOL,LEAVE_OFF,Demol,0.2532732,SimpleForest
FEXC13,FEXC,996.862774994036,0,904,0.906844976737554,996.862774994036,18.79803,0.35606,1364.354,FULL,DEMOL,LEAVE_OFF,Demol,0.3391767,SimpleForest
FEXC14,FEXC,1596.7409958873,0,1444,0.904342034005068,1596.7409958873,22.2731,0.25662,1914.737,FULL,DEMOL,LEAVE_OFF,Demol,0.3162182,SimpleForest
FEXC15,FEXC,1047.06584043648,0,905.872,0.865152853828537,1047.06584043648,21.078566,0.34247,1474.333,FULL,DEMOL,LEAVE_OFF,Demol,0.3396215,SimpleForest
FEXC16,FEXC,497.81364671912,0,406,0.8155662318134,497.81364671912,18.975022,0.227788,580.289,FULL,DEMOL,LEAVE_OFF,Demol,0.2264752,SimpleForest
FEXC2,FEXC,492.923876394629,0,416.101,0.844148599665061,492.923876394629,20.332707,0.22727,691.624,FULL,DEMOL,LEAVE_OFF,Demol,0.2234039,SimpleForest
FEXC3,FEXC,293.44354893067,0,239.698,0.816845355345099,293.44354893067,18.949483,0.190152,331.208,FULL,DEMOL,LEAVE_OFF,Demol,0.1822327,SimpleForest
FEXC4,FEXC,345.576502488266,0,266.02,0.769786134429185,345.576502488266,20.648028,0.18845,580.524,FULL,DEMOL,LEAVE_OFF,Demol,0.1976937,SimpleForest
FEXC5,FEXC,77.7126882081326,0,61.946,0.797115650331053,77.7126882081326,12.82798,0.130478,145.964,FULL,DEMOL,LEAVE_OFF,Demol,0.1209352,SimpleForest
FEXC6,FEXC,637.402413933115,0,543,0.851895110734517,637.402413933115,18.800332,0.292722,775.025,FULL,DEMOL,LEAVE_OFF,Demol,0.3025819,SimpleForest
FEXC7,FEXC,98.5225577442035,0,77.055,0.782105152000416,98.5225577442035,13.653845,0.122458,141.107,FULL,DEMOL,LEAVE_OFF,Demol,0.1277185,SimpleForest
FEXC8,FEXC,947.759362390985,0,789.621,0.833145027455031,947.759362390985,20.921611,0.296572,1209.342,FULL,DEMOL,LEAVE_OFF,Demol,0.2804034,SimpleForest
FEXC9,FEXC,352.929616122304,0,300.093,0.850291350715112,352.929616122304,21.103492,0.199276,536.736,FULL,DEMOL,LEAVE_OFF,Demol,0.1934259,SimpleForest
FSYL1,FSYL,868.227391047811,0,939.5,1.08208979546957,868.227391047811,20.467395,0.32252,1065.765,FULL,DEMOL,LEAVE_OFF,Demol,0.3100417,SimpleForest
FSYL10,FSYL,2103.13662829035,0,2102.5,0.999697295800099,2103.13662829035,23.129586,0.380808,3075.432,FULL,DEMOL,LEAVE_OFF,Demol,0.3869701,SimpleForest
FSYL11,FSYL,1016.954530914,0,1067.821,1.05001843006716,1016.954530914,22.462409,0.328768,1486.75,FULL,DEMOL,LEAVE_OFF,Demol,0.3207472,SimpleForest
FSYL12,FSYL,850.081461298186,0,877.5,1.03225401323297,850.081461298186,20.441266,0.27047,1677.247,FULL,DEMOL,LEAVE_OFF,Demol,0.2699659,SimpleForest
FSYL13,FSYL,1790.70369392955,0,1926.012,1.07556152730859,1790.70369392955,23.168826,0.41135,3271.132,FULL,DEMOL,LEAVE_OFF,Demol,0.3768889,SimpleForest
FSYL14,FSYL,1451.11656047266,0,1544.5,1.06435281773431,1451.11656047266,23.310148,0.361818,2077.472,FULL,DEMOL,LEAVE_OFF,Demol,0.3513099,SimpleForest
FSYL15,FSYL,652.191243948493,0,659,1.01043981518409,652.191243948493,17.35566,0.280194,987.25,FULL,DEMOL,LEAVE_OFF,Demol,0.2664315,SimpleForest
FSYL2,FSYL,700.176312870113,0,743.7864,1.06228443654588,700.176312870113,22.30469,0.25891,950.292,FULL,DEMOL,LEAVE_OFF,Demol,0.2706045,SimpleForest
FSYL3,FSYL,847.029730641423,0,804.273,0.949521570383315,847.029730641423,19.73114,0.327376,1097.425,FULL,DEMOL,LEAVE_OFF,Demol,0.3062824,SimpleForest
FSYL4,FSYL,682.961171759345,0,712.5,1.04325110923153,682.961171759345,19.134459,0.243922,846.326,FULL,DEMOL,LEAVE_OFF,Demol,0.2518081,SimpleForest
FSYL5,FSYL,903.89974066811,0,902,0.99789828386641,903.89974066811,21.114646,0.308576,1631.406,FULL,DEMOL,LEAVE_OFF,Demol,0.2885585,SimpleForest
FSYL6,FSYL,808.323835983057,0,867.532,1.07324807383038,808.323835983057,20.966474,0.273592,1030.07,FULL,DEMOL,LEAVE_OFF,Demol,0.2744146,SimpleForest
FSYL7,FSYL,964.629114241383,0,1007.5,1.0444428694155,964.629114241383,20.4257,0.323226,1187.456,FULL,DEMOL,LEAVE_OFF,Demol,0.3078256,SimpleForest
FSYL8,FSYL,1286.03725077471,0,1272,0.989084880110393,1286.03725077471,21.233072,0.325396,1936.493,FULL,DEMOL,LEAVE_OFF,Demol,0.3199069,SimpleForest
FSYL9,FSYL,1265.06851629774,0,1262.7,0.998127756507074,1265.06851629774,22.674462,0.324278,1753.981,FULL,DEMOL,LEAVE_OFF,Demol,0.3307565,SimpleForest
LXDC1,LXDC,1218.05803904491,0,1050,0.862027888936488,1218.05803904491,19.657195,0.313034,1919.359,FULL,DEMOL,LEAVE_OFF,Demol,0.3146609,SimpleForest
LXDC2,LXDC,635.095641959259,0,544,0.856563900079316,635.095641959259,18.526701,0.25148,911.216,FULL,DEMOL,LEAVE_OFF,Demol,0.2538593,SimpleForest
LXDC3,LXDC,545.89148577082,0,481.5,0.882043432716492,545.89148577082,18.824177,0.240728,1256.224,FULL,DEMOL,LEAVE_OFF,Demol,0.2379826,SimpleForest
LXDC4,LXDC,562.261022932587,0,499,0.887488158786757,562.261022932587,17.754605,0.240574,955.495,FULL,DEMOL,LEAVE_OFF,Demol,0.2238993,SimpleForest
LXDC5,LXDC,905.976314774618,0,758,0.836666464275691,905.976314774618,18.077273,0.296358,1721.823,FULL,DEMOL,LEAVE_OFF,Demol,0.2826534,SimpleForest
PSYLA1,PSYLA,661.091735669217,0,594.5,0.899270052738133,661.091735669217,16.797571,0.227474,693.737,FULL,DEMOL,LEAVE_OFF,Demol,0.2438799,SimpleForest
PSYLA10,PSYLA,592.262376534311,0,492,0.830712906126154,592.262376534311,17.382207,0.259404,680.878,FULL,DEMOL,LEAVE_OFF,Demol,0.2480673,SimpleForest
PSYLA11,PSYLA,779.243866708108,0,690.471,0.886078196440446,779.243866708108,16.957465,0.264878,863.357,FULL,DEMOL,LEAVE_OFF,Demol,0.264538,SimpleForest
PSYLA12,PSYLA,976.685368450926,0,859.9784,0.880507098579731,976.685368450926,18.333841,0.302966,958.837,FULL,DEMOL,LEAVE_OFF,Demol,0.2943401,SimpleForest
PSYLA13,PSYLA,1308.16792605104,0,1209.673,0.924707735077739,1308.16792605104,18.352119,0.359742,1332.88,FULL,DEMOL,LEAVE_OFF,Demol,0.3603055,SimpleForest
PSYLA14,PSYLA,770.659571846903,0,670.5,0.87003396116022,770.659571846903,18.16242,0.281032,694.269,FULL,DEMOL,LEAVE_OFF,Demol,0.2728519,SimpleForest
PSYLA15,PSYLA,906.976552068227,0,813.672,0.897125728492694,906.976552068227,17.907574,0.284024,835.936,FULL,DEMOL,LEAVE_OFF,Demol,0.289162,SimpleForest
PSYLA2,PSYLA,1200.43646389105,0,1084,0.903004892475824,1200.43646389105,17.748448,0.323958,1186.995,FULL,DEMOL,LEAVE_OFF,Demol,0.3216881,SimpleForest
PSYLA3,PSYLA,1090.27696866984,0,968.652,0.888445805822874,1090.27696866984,16.533871,0.306656,1090.806,FULL,DEMOL,LEAVE_OFF,Demol,0.3077772,SimpleForest
PSYLA4,PSYLA,954.041576071217,0,854,0.895139186194388,954.041576071217,17.24949,0.30416,851.331,FULL,DEMOL,LEAVE_OFF,Demol,0.296988,SimpleForest
PSYLA5,PSYLA,1262.22770222191,0,1083,0.858006838301509,1262.22770222191,16.946403,0.327034,1219.168,FULL,DEMOL,LEAVE_OFF,Demol,0.3339938,SimpleForest
PSYLA6,PSYLA,1425.84820626011,0,1292.5,0.906477978739498,1425.84820626011,17.58758,0.364968,1601.547,FULL,DEMOL,LEAVE_OFF,Demol,0.3639466,SimpleForest
PSYLA7,PSYLA,914.566082432721,0,794,0.868171272969124,914.566082432721,17.938721,0.329786,1073.155,FULL,DEMOL,LEAVE_OFF,Demol,0.3016522,SimpleForest
PSYLA8,PSYLA,604.389952218818,0,550.489,0.910817590496105,604.389952218818,18.657327,0.224816,803.257,FULL,DEMOL,LEAVE_OFF,Demol,0.2336835,SimpleForest
PSYLA9,PSYLA,579.880886378298,0,504,0.869144011881097,579.880886378298,16.940569,0.21856,602.069,FULL,DEMOL,LEAVE_OFF,Demol,0.2298853,SimpleForest
PSYLB1,PSYLB,743.621722616418,0,672.5,0.904357658667934,743.621722616418,20.797213,0.265752,1039.164,FULL,DEMOL,LEAVE_OFF,Demol,0.2781991,SimpleForest
PSYLB10,PSYLB,690.448684319434,0,591.5,0.856689299919564,690.448684319434,19.830341,0.282358,902.597,FULL,DEMOL,LEAVE_OFF,Demol,0.2794355,SimpleForest
PSYLB11,PSYLB,2823.26424634222,0,2428,0.859997431393708,2823.26424634222,22.435482,0.467754,3493.094,FULL,DEMOL,LEAVE_OFF,Demol,0.4466638,SimpleForest
PSYLB12,PSYLB,1245.89826848888,0,1068.5,0.857614162427529,1245.89826848888,20.216415,0.348354,1329.423,FULL,DEMOL,LEAVE_OFF,Demol,0.3336569,SimpleForest
PSYLB13,PSYLB,578.822043086988,0,471.14,0.813963472239766,578.822043086988,20.598422,0.242386,775.148,FULL,DEMOL,LEAVE_OFF,Demol,0.2500365,SimpleForest
PSYLB14,PSYLB,2114.98391783887,0,1892.687,0.894894275098785,2114.98391783887,21.860543,0.434538,2408.776,FULL,DEMOL,LEAVE_OFF,Demol,0.4367359,SimpleForest
PSYLB15,PSYLB,117.745769780171,0,92.5,0.785590855388656,117.745769780171,17.339287,0.134314,336.687,FULL,DEMOL,LEAVE_OFF,Demol,0.1350402,SimpleForest
PSYLB2,PSYLB,1533.04227897688,0,1398,0.911912227843444,1533.04227897688,22.31233,0.34757,2414.253,FULL,DEMOL,LEAVE_OFF,Demol,0.3573953,SimpleForest
PSYLB3,PSYLB,2610.75181312089,0,2216,0.848797648578859,2610.75181312089,22.429996,0.414282,4029.296,FULL,DEMOL,LEAVE_OFF,Demol,0.4160894,SimpleForest
PSYLB4,PSYLB,1381.25661336687,0,1226.704,0.888107240992577,1381.25661336687,23.8464,0.366114,1684.388,FULL,DEMOL,LEAVE_OFF,Demol,0.3423498,SimpleForest
PSYLB5,PSYLB,600.791472391497,0,519.5,0.864692699335578,600.791472391497,20.945899,0.237434,546.638,FULL,DEMOL,LEAVE_OFF,Demol,0.2296095,SimpleForest
PSYLB6,PSYLB,992.871647493718,0,867.657,0.873886370096483,992.871647493718,21.726906,0.306366,1030.358,FULL,DEMOL,LEAVE_OFF,Demol,0.295043,SimpleForest
PSYLB7,PSYLB,921.963339532647,0,805.5,0.873678990759346,921.963339532647,20.712226,0.305494,1311.546,FULL,DEMOL,LEAVE_OFF,Demol,0.3043626,SimpleForest
PSYLB8,PSYLB,352.72714773605,0,317,0.898711658670557,352.72714773605,19.4958,0.211434,482.237,FULL,DEMOL,LEAVE_OFF,Demol,0.1935383,SimpleForest
PSYLB9,PSYLB,281.291275562437,0,241.554,0.858732641163567,281.291275562437,19.19764,0.177916,304.24,FULL,DEMOL,LEAVE_OFF,Demol,0.195174,SimpleForest
FEXC1,FEXC,0,820.854056478127,705.5,0.859470687185182,820.854056478127,22.019349,0.272254,779.542,CROPPED,DEMOL,LEAVE_OFF,Demol,0.26598,SimpleForest
FEXC10,FEXC,0,83.6156925043422,61.5,0.735507871286317,83.6156925043422,13.545362,0.115918,85.173,CROPPED,DEMOL,LEAVE_OFF,Demol,0.1230145,SimpleForest
FEXC11,FEXC,0,531.780575315848,474,0.891345081039244,531.780575315848,19.325983,0.257068,479.368,CROPPED,DEMOL,LEAVE_OFF,Demol,0.2532732,SimpleForest
FEXC13,FEXC,0,996.862774994036,904,0.906844976737554,996.862774994036,18.79803,0.35606,970.406,CROPPED,DEMOL,LEAVE_OFF,Demol,0.3391767,SimpleForest
FEXC14,FEXC,0,1596.7409958873,1444,0.904342034005068,1596.7409958873,22.2731,0.25662,1175.852,CROPPED,DEMOL,LEAVE_OFF,Demol,0.3162182,SimpleForest
FEXC15,FEXC,0,1047.06584043648,905.872,0.865152853828537,1047.06584043648,21.078566,0.34247,1143.781,CROPPED,DEMOL,LEAVE_OFF,Demol,0.3396215,SimpleForest
FEXC16,FEXC,0,497.81364671912,406,0.8155662318134,497.81364671912,18.975022,0.227788,440.05,CROPPED,DEMOL,LEAVE_OFF,Demol,0.2264752,SimpleForest
FEXC2,FEXC,0,492.923876394629,416.101,0.844148599665061,492.923876394629,20.332707,0.22727,459.314,CROPPED,DEMOL,LEAVE_OFF,Demol,0.2234039,SimpleForest
FEXC3,FEXC,0,293.44354893067,239.698,0.816845355345099,293.44354893067,18.949483,0.190152,274.177,CROPPED,DEMOL,LEAVE_OFF,Demol,0.1822327,SimpleForest
FEXC4,FEXC,0,345.576502488266,266.02,0.769786134429185,345.576502488266,20.648028,0.18845,378.691,CROPPED,DEMOL,LEAVE_OFF,Demol,0.1976937,SimpleForest
FEXC5,FEXC,0,77.7126882081326,61.946,0.797115650331053,77.7126882081326,12.82798,0.130478,93.984,CROPPED,DEMOL,LEAVE_OFF,Demol,0.1209352,SimpleForest
FEXC6,FEXC,0,637.402413933115,543,0.851895110734517,637.402413933115,18.800332,0.292722,647.602,CROPPED,DEMOL,LEAVE_OFF,Demol,0.3025819,SimpleForest
FEXC7,FEXC,0,98.5225577442035,77.055,0.782105152000416,98.5225577442035,13.653845,0.122458,96.478,CROPPED,DEMOL,LEAVE_OFF,Demol,0.1277185,SimpleForest
FEXC8,FEXC,0,947.759362390985,789.621,0.833145027455031,947.759362390985,20.921611,0.296572,756.761,CROPPED,DEMOL,LEAVE_OFF,Demol,0.2804034,SimpleForest
FEXC9,FEXC,0,352.929616122304,300.093,0.850291350715112,352.929616122304,21.103492,0.199276,393.876,CROPPED,DEMOL,LEAVE_OFF,Demol,0.1934259,SimpleForest
FSYL1,FSYL,0,868.227391047811,939.5,1.08208979546957,868.227391047811,20.467395,0.32252,865.741,CROPPED,DEMOL,LEAVE_OFF,Demol,0.3100417,SimpleForest
FSYL10,FSYL,0,2103.13662829035,2102.5,0.999697295800099,2103.13662829035,23.129586,0.380808,2509.807,CROPPED,DEMOL,LEAVE_OFF,Demol,0.3869701,SimpleForest
FSYL11,FSYL,0,1016.954530914,1067.821,1.05001843006716,1016.954530914,22.462409,0.328768,1234.124,CROPPED,DEMOL,LEAVE_OFF,Demol,0.3207472,SimpleForest
FSYL12,FSYL,0,850.081461298186,877.5,1.03225401323297,850.081461298186,20.441266,0.27047,1015.287,CROPPED,DEMOL,LEAVE_OFF,Demol,0.2699659,SimpleForest
FSYL13,FSYL,0,1790.70369392955,1926.012,1.07556152730859,1790.70369392955,23.168826,0.41135,2075.255,CROPPED,DEMOL,LEAVE_OFF,Demol,0.3768889,SimpleForest
FSYL14,FSYL,0,1451.11656047266,1544.5,1.06435281773431,1451.11656047266,23.310148,0.361818,1409.601,CROPPED,DEMOL,LEAVE_OFF,Demol,0.3513099,SimpleForest
FSYL15,FSYL,0,652.191243948493,659,1.01043981518409,652.191243948493,17.35566,0.280194,654.726,CROPPED,DEMOL,LEAVE_OFF,Demol,0.2664315,SimpleForest
FSYL2,FSYL,0,700.176312870113,743.7864,1.06228443654588,700.176312870113,22.30469,0.25891,705.95,CROPPED,DEMOL,LEAVE_OFF,Demol,0.2706045,SimpleForest
FSYL3,FSYL,0,847.029730641423,804.273,0.949521570383315,847.029730641423,19.73114,0.327376,918.779,CROPPED,DEMOL,LEAVE_OFF,Demol,0.3062824,SimpleForest
FSYL4,FSYL,0,682.961171759345,712.5,1.04325110923153,682.961171759345,19.134459,0.243922,556.269,CROPPED,DEMOL,LEAVE_OFF,Demol,0.2518081,SimpleForest
FSYL5,FSYL,0,903.89974066811,902,0.99789828386641,903.89974066811,21.114646,0.308576,997.644,CROPPED,DEMOL,LEAVE_OFF,Demol,0.2885585,SimpleForest
FSYL6,FSYL,0,808.323835983057,867.532,1.07324807383038,808.323835983057,20.966474,0.273592,769.141,CROPPED,DEMOL,LEAVE_OFF,Demol,0.2744146,SimpleForest
FSYL7,FSYL,0,964.629114241383,1007.5,1.0444428694155,964.629114241383,20.4257,0.323226,920.144,CROPPED,DEMOL,LEAVE_OFF,Demol,0.3078256,SimpleForest
FSYL8,FSYL,0,1286.03725077471,1272,0.989084880110393,1286.03725077471,21.233072,0.325396,1453.95,CROPPED,DEMOL,LEAVE_OFF,Demol,0.3199069,SimpleForest
FSYL9,FSYL,0,1265.06851629774,1262.7,0.998127756507074,1265.06851629774,22.674462,0.324278,1298.9,CROPPED,DEMOL,LEAVE_OFF,Demol,0.3307565,SimpleForest
LXDC1,LXDC,0,1218.05803904491,1050,0.862027888936488,1218.05803904491,19.657195,0.313034,877.407,CROPPED,DEMOL,LEAVE_OFF,Demol,0.3146609,SimpleForest
LXDC2,LXDC,0,635.095641959259,544,0.856563900079316,635.095641959259,18.526701,0.25148,539.423,CROPPED,DEMOL,LEAVE_OFF,Demol,0.2538593,SimpleForest
LXDC3,LXDC,0,545.89148577082,481.5,0.882043432716492,545.89148577082,18.824177,0.240728,561.43,CROPPED,DEMOL,LEAVE_OFF,Demol,0.2379826,SimpleForest
LXDC4,LXDC,0,562.261022932587,499,0.887488158786757,562.261022932587,17.754605,0.240574,451.008,CROPPED,DEMOL,LEAVE_OFF,Demol,0.2238993,SimpleForest
LXDC5,LXDC,0,905.976314774618,758,0.836666464275691,905.976314774618,18.077273,0.296358,769.006,CROPPED,DEMOL,LEAVE_OFF,Demol,0.2826534,SimpleForest
PSYLA1,PSYLA,0,661.091735669217,594.5,0.899270052738133,661.091735669217,16.797571,0.227474,487.007,CROPPED,DEMOL,LEAVE_OFF,Demol,0.2438799,SimpleForest
PSYLA10,PSYLA,0,592.262376534311,492,0.830712906126154,592.262376534311,17.382207,0.259404,519.707,CROPPED,DEMOL,LEAVE_OFF,Demol,0.2480673,SimpleForest
PSYLA11,PSYLA,0,779.243866708108,690.471,0.886078196440446,779.243866708108,16.957465,0.264878,612.995,CROPPED,DEMOL,LEAVE_OFF,Demol,0.264538,SimpleForest
PSYLA12,PSYLA,0,976.685368450926,859.9784,0.880507098579731,976.685368450926,18.333841,0.302966,790.672,CROPPED,DEMOL,LEAVE_OFF,Demol,0.2943401,SimpleForest
PSYLA13,PSYLA,0,1308.16792605104,1209.673,0.924707735077739,1308.16792605104,18.352119,0.359742,1166.789,CROPPED,DEMOL,LEAVE_OFF,Demol,0.3603055,SimpleForest
PSYLA14,PSYLA,0,770.659571846903,670.5,0.87003396116022,770.659571846903,18.16242,0.281032,580.29,CROPPED,DEMOL,LEAVE_OFF,Demol,0.2728519,SimpleForest
PSYLA15,PSYLA,0,906.976552068227,813.672,0.897125728492694,906.976552068227,17.907574,0.284024,653.516,CROPPED,DEMOL,LEAVE_OFF,Demol,0.289162,SimpleForest
PSYLA2,PSYLA,0,1200.43646389105,1084,0.903004892475824,1200.43646389105,17.748448,0.323958,841.905,CROPPED,DEMOL,LEAVE_OFF,Demol,0.3216881,SimpleForest
PSYLA3,PSYLA,0,1090.27696866984,968.652,0.888445805822874,1090.27696866984,16.533871,0.306656,781.87,CROPPED,DEMOL,LEAVE_OFF,Demol,0.3077772,SimpleForest
PSYLA4,PSYLA,0,954.041576071217,854,0.895139186194388,954.041576071217,17.24949,0.30416,716.575,CROPPED,DEMOL,LEAVE_OFF,Demol,0.296988,SimpleForest
PSYLA5,PSYLA,0,1262.22770222191,1083,0.858006838301509,1262.22770222191,16.946403,0.327034,934.638,CROPPED,DEMOL,LEAVE_OFF,Demol,0.3339938,SimpleForest
PSYLA6,PSYLA,0,1425.84820626011,1292.5,0.906477978739498,1425.84820626011,17.58758,0.364968,1207.541,CROPPED,DEMOL,LEAVE_OFF,Demol,0.3639466,SimpleForest
PSYLA7,PSYLA,0,914.566082432721,794,0.868171272969124,914.566082432721,17.938721,0.329786,836.402,CROPPED,DEMOL,LEAVE_OFF,Demol,0.3016522,SimpleForest
PSYLA8,PSYLA,0,604.389952218818,550.489,0.910817590496105,604.389952218818,18.657327,0.224816,553.453,CROPPED,DEMOL,LEAVE_OFF,Demol,0.2336835,SimpleForest
PSYLA9,PSYLA,0,579.880886378298,504,0.869144011881097,579.880886378298,16.940569,0.21856,419.639,CROPPED,DEMOL,LEAVE_OFF,Demol,0.2298853,SimpleForest
PSYLB1,PSYLB,0,743.621722616418,672.5,0.904357658667934,743.621722616418,20.797213,0.265752,748.451,CROPPED,DEMOL,LEAVE_OFF,Demol,0.2781991,SimpleForest
PSYLB10,PSYLB,0,690.448684319434,591.5,0.856689299919564,690.448684319434,19.830341,0.282358,684.723,CROPPED,DEMOL,LEAVE_OFF,Demol,0.2794355,SimpleForest
PSYLB11,PSYLB,0,2823.26424634222,2428,0.859997431393708,2823.26424634222,22.435482,0.467754,3024.251,CROPPED,DEMOL,LEAVE_OFF,Demol,0.4466638,SimpleForest
PSYLB12,PSYLB,0,1245.89826848888,1068.5,0.857614162427529,1245.89826848888,20.216415,0.348354,1115.001,CROPPED,DEMOL,LEAVE_OFF,Demol,0.3336569,SimpleForest
PSYLB13,PSYLB,0,578.822043086988,471.14,0.813963472239766,578.822043086988,20.598422,0.242386,607.242,CROPPED,DEMOL,LEAVE_OFF,Demol,0.2500365,SimpleForest
PSYLB14,PSYLB,0,2114.98391783887,1892.687,0.894894275098785,2114.98391783887,21.860543,0.434538,2001.689,CROPPED,DEMOL,LEAVE_OFF,Demol,0.4367359,SimpleForest
PSYLB15,PSYLB,0,117.745769780171,92.5,0.785590855388656,117.745769780171,17.339287,0.134314,173.552,CROPPED,DEMOL,LEAVE_OFF,Demol,0.1350402,SimpleForest
PSYLB2,PSYLB,0,1533.04227897688,1398,0.911912227843444,1533.04227897688,22.31233,0.34757,1886.865,CROPPED,DEMOL,LEAVE_OFF,Demol,0.3573953,SimpleForest
PSYLB3,PSYLB,0,2610.75181312089,2216,0.848797648578859,2610.75181312089,22.429996,0.414282,3091.094,CROPPED,DEMOL,LEAVE_OFF,Demol,0.4160894,SimpleForest
PSYLB4,PSYLB,0,1381.25661336687,1226.704,0.888107240992577,1381.25661336687,23.8464,0.366114,1450.058,CROPPED,DEMOL,LEAVE_OFF,Demol,0.3423498,SimpleForest
PSYLB5,PSYLB,0,600.791472391497,519.5,0.864692699335578,600.791472391497,20.945899,0.237434,495.364,CROPPED,DEMOL,LEAVE_OFF,Demol,0.2296095,SimpleForest
PSYLB6,PSYLB,0,992.871647493718,867.657,0.873886370096483,992.871647493718,21.726906,0.306366,862.422,CROPPED,DEMOL,LEAVE_OFF,Demol,0.295043,SimpleForest
PSYLB7,PSYLB,0,921.963339532647,805.5,0.873678990759346,921.963339532647,20.712226,0.305494,929.454,CROPPED,DEMOL,LEAVE_OFF,Demol,0.3043626,SimpleForest
PSYLB8,PSYLB,0,352.72714773605,317,0.898711658670557,352.72714773605,19.4958,0.211434,320.31,CROPPED,DEMOL,LEAVE_OFF,Demol,0.1935383,SimpleForest
PSYLB9,PSYLB,0,281.291275562437,241.554,0.858732641163567,281.291275562437,19.19764,0.177916,249.895,CROPPED,DEMOL,LEAVE_OFF,Demol,0.195174,SimpleForest
GUY01_000,GUY,0,18326.9366100238,14478.2799219188,0.79,18326.9366100238,26.352403,0,18713.157,CROPPED,NO,LEAVE_ON,Gonzales,0,SimpleForest
GUY02_000,GUY,0,6156.74250886341,923.511376329512,0.15,6156.74250886341,27.907464,0,6956.837,CROPPED,NO,LEAVE_ON,Gonzales,0,SimpleForest
GUY04_000,GUY,0,10968.6791914777,8665.25656126735,0.789999999999997,10968.6791914777,24.067587,0,6469.31,CROPPED,NO,LEAVE_ON,Gonzales,0,SimpleForest
GUY05_000,GUY,0,11400.0554676654,9006.04381945565,0.789999999999999,11400.0554676654,27.154427,0,8024.757,CROPPED,NO,LEAVE_ON,Gonzales,0,SimpleForest
GUY06_000,GUY,0,14116.9090144266,11152.358121397,0.789999999999999,14116.9090144266,29.400858,0,10397.652,CROPPED,NO,LEAVE_ON,Gonzales,0,SimpleForest
GUY08_000,GUY,0,12936.4412008321,10219.7885486574,0.790000000000003,12936.4412008321,25.0694,0,13949.298,CROPPED,NO,LEAVE_ON,Gonzales,0,SimpleForest
GUY10_000,GUY,0,9626.82928977065,7123.85367443028,0.74,9626.82928977065,23.994414,0,11058.661,CROPPED,NO,LEAVE_ON,Gonzales,0,SimpleForest
IND01_054,IND,0,1716.9359882352,1047.33095282347,0.609999999999999,1716.9359882352,19.075192,0,1865.271,CROPPED,NO,LEAVE_ON,Gonzales,0,SimpleForest
IND02_067,IND,0,2653.98882321305,1618.93318215996,0.61,2653.98882321305,20.00831,0,4591.587,CROPPED,NO,LEAVE_ON,Gonzales,0,SimpleForest
IND03_088,IND,0,5730.45553852762,3495.57787850185,0.61,5730.45553852762,19.172911,0,6530.656,CROPPED,NO,LEAVE_ON,Gonzales,0,SimpleForest
IND04_109,IND,0,1652.16705976373,1387.82033020153,0.839999999999998,1652.16705976373,18.770631,0,1589.865,CROPPED,NO,LEAVE_ON,Gonzales,0,SimpleForest
IND05_080,IND,0,1040.88906952357,658.912446346903,0.633028500000002,1040.88906952357,17.759313,0,1457.387,CROPPED,NO,LEAVE_ON,Gonzales,0,SimpleForest
IND08_076,IND,0,5028.4817892078,3821.64615979793,0.76,5028.4817892078,20.081477,0,5675.731,CROPPED,NO,LEAVE_ON,Gonzales,0,SimpleForest
IND09_067,IND,0,4245.31126475837,2462.28053355985,0.579999999999999,4245.31126475837,19.014998,0,4297.01,CROPPED,NO,LEAVE_ON,Gonzales,0,SimpleForest
IND10_149,IND,0,2738.44977358673,1478.76287773683,0.539999999999998,2738.44977358673,21.370589,0,2593.766,CROPPED,NO,LEAVE_ON,Gonzales,0,SimpleForest
IND11_104,IND,0,16802.9985828032,9596.38301983985,0.571111339000001,16802.9985828032,33.786894,0,15357.389,CROPPED,NO,LEAVE_ON,Gonzales,0,SimpleForest
MDD05_007,MDD,0,28294.842513,21221.13188475,0.75,28294.842513,24.187249,0,23940.176,CROPPED,NO,LEAVE_ON,Gonzales,0,SimpleForest
MDD06_007,MDD,0,32098.14524,17974.9613344,0.56,32098.14524,36.48437,0,25294.532,CROPPED,NO,LEAVE_ON,Gonzales,0,SimpleForest
MDD08_006,MDD,0,20763.761025,14113.395328368,0.679712857,20763.761025,32.290015,0,14772.125,CROPPED,NO,LEAVE_ON,Gonzales,0,SimpleForest
GUY01_000,GUY,0,18326.9366100238,14478.2799219188,0.79,18326.9366100238,23.817276,0,12933.921,CROPPED,SEMI AUTO,LEAVE_OFF,Gonzales,0,SimpleForest
GUY02_000,GUY,0,6156.74250886341,923.511376329512,0.15,6156.74250886341,26.466764,0,4724.84,CROPPED,SEMI AUTO,LEAVE_OFF,Gonzales,0,SimpleForest
GUY03_000,GUY,0,9716.49125347681,7676.02809024668,0.79,9716.49125347681,20.329844,0,9054.228,CROPPED,SEMI AUTO,LEAVE_OFF,Gonzales,0,SimpleForest
GUY04_000,GUY,0,10968.6791914777,8665.25656126735,0.789999999999997,10968.6791914777,23.716419,0,6981.709,CROPPED,SEMI AUTO,LEAVE_OFF,Gonzales,0,SimpleForest
GUY05_000,GUY,0,11400.0554676654,9006.04381945565,0.789999999999999,11400.0554676654,25.523966,0,10691.979,CROPPED,SEMI AUTO,LEAVE_OFF,Gonzales,0,SimpleForest
GUY06_000,GUY,0,14116.9090144266,11152.358121397,0.789999999999999,14116.9090144266,23.216759,0,7516.764,CROPPED,SEMI AUTO,LEAVE_OFF,Gonzales,0,SimpleForest
GUY07_000,GUY,0,20442.3638001208,16149.4674020954,0.789999999999999,20442.3638001208,25.244907,0,14224.56,CROPPED,SEMI AUTO,LEAVE_OFF,Gonzales,0,SimpleForest
GUY08_000,GUY,0,12936.4412008321,10219.7885486574,0.790000000000003,12936.4412008321,23.307056,0,10218.527,CROPPED,SEMI AUTO,LEAVE_OFF,Gonzales,0,SimpleForest
GUY09_000,GUY,0,27937.9391228556,14807.1077351135,0.530000000000001,27937.9391228556,28.81776,0,15810.141,CROPPED,SEMI AUTO,LEAVE_OFF,Gonzales,0,SimpleForest
GUY10_000,GUY,0,9626.82928977065,7123.85367443028,0.74,9626.82928977065,23.736499,0,8762.873,CROPPED,SEMI AUTO,LEAVE_OFF,Gonzales,0,SimpleForest
IND01_054,IND,0,1716.9359882352,1047.33095282347,0.609999999999999,1716.9359882352,17.205287,0,2281.067,CROPPED,SEMI AUTO,LEAVE_OFF,Gonzales,0,SimpleForest
IND02_067,IND,0,2653.98882321305,1618.93318215996,0.61,2653.98882321305,19.355472,0,2773.83,CROPPED,SEMI AUTO,LEAVE_OFF,Gonzales,0,SimpleForest
IND03_088,IND,0,5730.45553852762,3495.57787850185,0.61,5730.45553852762,16.481524,0,9040.612,CROPPED,SEMI AUTO,LEAVE_OFF,Gonzales,0,SimpleForest
IND04_109,IND,0,1652.16705976373,1387.82033020153,0.839999999999998,1652.16705976373,17.81067,0,1766.577,CROPPED,SEMI AUTO,LEAVE_OFF,Gonzales,0,SimpleForest
IND05_080,IND,0,1040.88906952357,658.912446346903,0.633028500000002,1040.88906952357,16.042186,0,1018.931,CROPPED,SEMI AUTO,LEAVE_OFF,Gonzales,0,SimpleForest
IND07_083,IND,0,17762.8658283629,10144.5740877137,0.571111339000001,17762.8658283629,32.340064,0,14904.775,CROPPED,SEMI AUTO,LEAVE_OFF,Gonzales,0,SimpleForest
IND08_076,IND,0,5028.4817892078,3821.64615979793,0.76,5028.4817892078,19.06365,0,4372.011,CROPPED,SEMI AUTO,LEAVE_OFF,Gonzales,0,SimpleForest
IND09_067,IND,0,4245.31126475837,2462.28053355985,0.579999999999999,4245.31126475837,17.111768,0,4489.507,CROPPED,SEMI AUTO,LEAVE_OFF,Gonzales,0,SimpleForest
IND10_149,IND,0,2738.44977358673,1478.76287773683,0.539999999999998,2738.44977358673,18.076637,0,2690.317,CROPPED,SEMI AUTO,LEAVE_OFF,Gonzales,0,SimpleForest
IND11_104,IND,0,16802.9985828032,9596.38301983985,0.571111339000001,16802.9985828032,26.258957,0,17272.493,CROPPED,SEMI AUTO,LEAVE_OFF,Gonzales,0,SimpleForest
MDD01_006,MDD,0,43894.07228,30965.0489287159,0.705449445,43894.07228,25.314,0,39782.312,CROPPED,SEMI AUTO,LEAVE_OFF,Gonzales,0,SimpleForest
MDD02_013,MDD,0,11648.568626,6173.74137178,0.53,11648.568626,21.94148,0,11733.115,CROPPED,SEMI AUTO,LEAVE_OFF,Gonzales,0,SimpleForest
MDD03_011,MDD,0,13684.369224,7387.28198718063,0.539833577,13684.369224,26.446107,0,13687.087,CROPPED,SEMI AUTO,LEAVE_OFF,Gonzales,0,SimpleForest
MDD04_012,MDD,0,7040.397611,3800.64302584838,0.539833576999999,7040.397611,29.321689,0,5735.19,CROPPED,SEMI AUTO,LEAVE_OFF,Gonzales,0,SimpleForest
MDD05_007,MDD,0,28294.842513,21221.13188475,0.75,28294.842513,27.977997,0,29885.17,CROPPED,SEMI AUTO,LEAVE_OFF,Gonzales,0,SimpleForest
MDD06_007,MDD,0,32098.14524,17974.9613344,0.56,32098.14524,32.845629,0,27621.581,CROPPED,SEMI AUTO,LEAVE_OFF,Gonzales,0,SimpleForest
MDD07_010,MDD,0,22856.907708,12799.86831648,0.56,22856.907708,27.476288,0,22127.695,CROPPED,SEMI AUTO,LEAVE_OFF,Gonzales,0,SimpleForest
MDD08_006,MDD,0,20763.761025,14113.395328368,0.679712857,20763.761025,31.973378,0,18805.192,CROPPED,SEMI AUTO,LEAVE_OFF,Gonzales,0,SimpleForest
MDD09_007,MDD,0,7995.870481,4730.12852654409,0.591571429,7995.870481,25.537547,0,8815.904,CROPPED,SEMI AUTO,LEAVE_OFF,Gonzales,0,SimpleForest
Ery_01.asc,Erythrophleum_fordii,405.014285714286,0,283.51,0.7,405.014285714286,15.361589,0.226028,436.94506,CROPPED,SEMI AUTO,LEAVE_OFF,Hackenberg,22.4,SimpleForest
Ery_02.asc,Erythrophleum_fordii,323.287671232877,0,236,0.73,323.287671232877,17.090742,0.202012,336.76655,CROPPED,SEMI AUTO,LEAVE_OFF,Hackenberg,19.5,SimpleForest
Ery_03.asc,Erythrophleum_fordii,382.514285714286,0,267.76,0.7,382.514285714286,14.226034,0.196768,315.86172,CROPPED,SEMI AUTO,LEAVE_OFF,Hackenberg,19.75,SimpleForest
Ery_04.asc,Erythrophleum_fordii,439.173913043478,0,303.03,0.69,439.173913043478,16.589492,0.221874,505.5848,CROPPED,SEMI AUTO,LEAVE_OFF,Hackenberg,21.1,SimpleForest
Ery_05.asc,Erythrophleum_fordii,754.275362318841,0,520.45,0.69,754.275362318841,17.701328,0.249274,643.76163,CROPPED,SEMI AUTO,LEAVE_OFF,Hackenberg,26,SimpleForest
Ery_06.asc,Erythrophleum_fordii,210.432432432432,0,155.72,0.74,210.432432432432,13.301968,0.17261,220.72755,CROPPED,SEMI AUTO,LEAVE_OFF,Hackenberg,17.7,SimpleForest
Ery_07.asc,Erythrophleum_fordii,360.098591549296,0,255.67,0.71,360.098591549296,14.238377,0.188826,304.33865,CROPPED,SEMI AUTO,LEAVE_OFF,Hackenberg,18.2,SimpleForest
Ery_08.asc,Erythrophleum_fordii,597.811594202899,0,412.49,0.69,597.811594202899,14.041195,0.240856,543.74752,CROPPED,SEMI AUTO,LEAVE_OFF,Hackenberg,23.1,SimpleForest
Ery_09.asc,Erythrophleum_fordii,632.714285714286,0,442.9,0.7,632.714285714286,18.771032,0.23578,597.4707,CROPPED,SEMI AUTO,LEAVE_OFF,Hackenberg,23.25,SimpleForest
Ery_10.asc,Erythrophleum_fordii,748.871428571429,0,524.21,0.7,748.871428571429,18.758336,0.248718,657.70275,CROPPED,SEMI AUTO,LEAVE_OFF,Hackenberg,26,SimpleForest
Ery_11.asc,Erythrophleum_fordii,514.828571428571,0,360.38,0.7,514.828571428571,17.513662,0.21473,477.33403,CROPPED,SEMI AUTO,LEAVE_OFF,Hackenberg,21.75,SimpleForest
Ery_12.asc,Erythrophleum_fordii,443.619718309859,0,314.97,0.71,443.619718309859,17.357473,0.20792,429.72379,CROPPED,SEMI AUTO,LEAVE_OFF,Hackenberg,21,SimpleForest
Q01.asc,Quercus_petraea,865.698113207547,0,458.82,0.53,865.698113207547,24.31698,0.252514,980.815,CROPPED,SEMI AUTO,LEAVE_OFF,Hackenberg,26,SimpleForest
Q02.asc,Quercus_petraea,598.134615384615,0,311.03,0.52,598.134615384615,25.18363,0.252218,945.6325,CROPPED,SEMI AUTO,LEAVE_OFF,Hackenberg,24.3,SimpleForest
Q03.asc,Quercus_petraea,1144.84615384615,0,595.32,0.52,1144.84615384615,26.854396,0.323906,1706.8825,CROPPED,SEMI AUTO,LEAVE_OFF,Hackenberg,32,SimpleForest
Q04.asc,Quercus_petraea,958.444444444444,0,517.56,0.54,958.444444444444,26.161319,0.271154,1151.8775,CROPPED,SEMI AUTO,LEAVE_OFF,Hackenberg,27.8,SimpleForest
Q05.asc,Quercus_petraea,777.811320754717,0,412.24,0.53,777.811320754717,23.002166,0.29734,1216.125,CROPPED,SEMI AUTO,LEAVE_OFF,Hackenberg,29.1,SimpleForest
Q06.asc,Quercus_petraea,919.098039215686,0,468.74,0.51,919.098039215686,24.69681,0.268248,1015.46875,CROPPED,SEMI AUTO,LEAVE_OFF,Hackenberg,28.3,SimpleForest
Q07.asc,Quercus_petraea,704.019230769231,0,366.09,0.52,704.019230769231,26.370292,0.254114,1046.665,CROPPED,SEMI AUTO,LEAVE_OFF,Hackenberg,25,SimpleForest
Q08.asc,Quercus_petraea,1241,0,632.91,0.51,1241,25.168037,0.308704,1450.09625,CROPPED,SEMI AUTO,LEAVE_OFF,Hackenberg,31,SimpleForest
Q09.asc,Quercus_petraea,1118.76923076923,0,581.76,0.52,1118.76923076923,29.884805,0.305276,1575.55375,CROPPED,SEMI AUTO,LEAVE_OFF,Hackenberg,30.2,SimpleForest
Q10.asc,Quercus_petraea,791.961538461538,0,411.82,0.52,791.961538461538,21.977618,0.272812,1036.37625,CROPPED,SEMI AUTO,LEAVE_OFF,Hackenberg,27.1,SimpleForest
Q11.asc,Quercus_petraea,886.588235294118,0,452.16,0.51,886.588235294118,23.101982,0.263596,1038.545,CROPPED,SEMI AUTO,LEAVE_OFF,Hackenberg,27,SimpleForest
Q12.asc,Quercus_petraea,1112.37735849057,0,589.56,0.53,1112.37735849057,24.787277,0.272148,1685.6575,CROPPED,SEMI AUTO,LEAVE_OFF,Hackenberg,30.8,SimpleForest
Pinus01.asc,Pinus_massoniana,722.974358974359,0,281.96,0.39,722.974358974359,15.558063,0.286884,629.90814,CROPPED,AUTO,LEAVE_OFF,Hackenberg,23,SimpleForest
Pinus02.asc,Pinus_massoniana,284.375,0,113.75,0.4,284.375,15.319611,0.186622,279.41514,CROPPED,AUTO,LEAVE_OFF,Hackenberg,16.75,SimpleForest
Pinus03.asc,Pinus_massoniana,336.391304347826,0,154.74,0.46,336.391304347826,15.738832,0.220454,391.25826,CROPPED,AUTO,LEAVE_OFF,Hackenberg,22.4,SimpleForest
Pinus04.asc,Pinus_massoniana,340.463414634146,0,139.59,0.41,340.463414634146,16.707714,0.211234,373.06386,CROPPED,AUTO,LEAVE_OFF,Hackenberg,20.25,SimpleForest
Pinus05.asc,Pinus_massoniana,403.04347826087,0,185.4,0.46,403.04347826087,14.604321,0.230906,455.90766,CROPPED,AUTO,LEAVE_OFF,Hackenberg,21.4,SimpleForest
Pinus06.asc,Pinus_massoniana,516.317073170732,0,211.69,0.41,516.317073170732,15.543013,0.272998,623.11944,CROPPED,AUTO,LEAVE_OFF,Hackenberg,26.15,SimpleForest
Pinus07.asc,Pinus_massoniana,364.311111111111,0,163.94,0.45,364.311111111111,11.919195,0.252114,427.68354,CROPPED,AUTO,LEAVE_OFF,Hackenberg,22,SimpleForest
Pinus08.asc,Pinus_massoniana,93.974358974359,0,36.65,0.39,93.974358974359,12.543805,0.144758,123.7014,CROPPED,AUTO,LEAVE_OFF,Hackenberg,13.3,SimpleForest
Pinus09.asc,Pinus_massoniana,379.80487804878,0,155.72,0.41,379.80487804878,13.542957,0.21382,345.14412,CROPPED,AUTO,LEAVE_OFF,Hackenberg,19,SimpleForest
Pinus10.asc,Pinus_massoniana,352.596153846154,0,183.35,0.52,352.596153846154,14.918899,0.22777,437.9994,CROPPED,AUTO,LEAVE_OFF,Hackenberg,23.25,SimpleForest
Pinus11.asc,Pinus_massoniana,558,0,234.36,0.42,558,14.874252,0.244148,451.80822,CROPPED,AUTO,LEAVE_OFF,Hackenberg,25.25,SimpleForest
Pinus12.asc,Pinus_massoniana,298.780487804878,0,122.5,0.41,298.780487804878,17.44066,0.188824,268.63074,CROPPED,AUTO,LEAVE_OFF,Hackenberg,17.75,SimpleForest
FEXC1,FEXC,0,708.5891,705.5,0.859470687185182,820.854056478127,0,0,708.5891,CROPPED,DEMOL,LEAVE_OFF,Demol,0,TreeQsm
FEXC10,FEXC,0,79.34602,61.5,0.735507871286317,83.6156925043422,0,0,79.34602,CROPPED,DEMOL,LEAVE_OFF,Demol,0,TreeQsm
FEXC11,FEXC,0,470.9156,474,0.891345081039244,531.780575315848,0,0,470.9156,CROPPED,DEMOL,LEAVE_OFF,Demol,0,TreeQsm
FEXC13,FEXC,0,832.6981,904,0.906844976737554,996.862774994036,0,0,832.6981,CROPPED,DEMOL,LEAVE_OFF,Demol,0,TreeQsm
FEXC14,FEXC,0,1493.46,1444,0.904342034005068,1596.7409958873,0,0,1493.46,CROPPED,DEMOL,LEAVE_OFF,Demol,0,TreeQsm
FEXC15,FEXC,0,1041.958,905.872,0.865152853828537,1047.06584043648,0,0,1041.958,CROPPED,DEMOL,LEAVE_OFF,Demol,0,TreeQsm
FEXC16,FEXC,0,409.578,406,0.8155662318134,497.81364671912,0,0,409.578,CROPPED,DEMOL,LEAVE_OFF,Demol,0,TreeQsm
FEXC2,FEXC,0,409.1078,416.101,0.844148599665061,492.923876394629,0,0,409.1078,CROPPED,DEMOL,LEAVE_OFF,Demol,0,TreeQsm
FEXC3,FEXC,0,264.3445,239.698,0.816845355345099,293.44354893067,0,0,264.3445,CROPPED,DEMOL,LEAVE_OFF,Demol,0,TreeQsm
FEXC4,FEXC,0,297.6163,266.02,0.769786134429185,345.576502488266,0,0,297.6163,CROPPED,DEMOL,LEAVE_OFF,Demol,0,TreeQsm
FEXC5,FEXC,0,66.77336,61.946,0.797115650331053,77.7126882081326,0,0,66.77336,CROPPED,DEMOL,LEAVE_OFF,Demol,0,TreeQsm
FEXC6,FEXC,0,617.8378,543,0.851895110734517,637.402413933115,0,0,617.8378,CROPPED,DEMOL,LEAVE_OFF,Demol,0,TreeQsm
FEXC7,FEXC,0,63.75929,77.055,0.782105152000416,98.5225577442035,0,0,63.75929,CROPPED,DEMOL,LEAVE_OFF,Demol,0,TreeQsm
FEXC8,FEXC,0,773.2273,789.621,0.833145027455031,947.759362390985,0,0,773.2273,CROPPED,DEMOL,LEAVE_OFF,Demol,0,TreeQsm
FEXC9,FEXC,0,338.3267,300.093,0.850291350715112,352.929616122304,0,0,338.3267,CROPPED,DEMOL,LEAVE_OFF,Demol,0,TreeQsm
FSYL1,FSYL,0,916.5045,939.5,1.08208979546957,868.227391047811,0,0,916.5045,CROPPED,DEMOL,LEAVE_OFF,Demol,0,TreeQsm
FSYL10,FSYL,0,1826.817,2102.5,0.999697295800099,2103.13662829035,0,0,1826.817,CROPPED,DEMOL,LEAVE_OFF,Demol,0,TreeQsm
FSYL11,FSYL,0,991.7405,1067.821,1.05001843006716,1016.954530914,0,0,991.7405,CROPPED,DEMOL,LEAVE_OFF,Demol,0,TreeQsm
FSYL12,FSYL,0,744.8864,877.5,1.03225401323297,850.081461298186,0,0,744.8864,CROPPED,DEMOL,LEAVE_OFF,Demol,0,TreeQsm
FSYL13,FSYL,0,1480.334,1926.012,1.07556152730859,1790.70369392955,0,0,1480.334,CROPPED,DEMOL,LEAVE_OFF,Demol,0,TreeQsm
FSYL14,FSYL,0,1214.052,1544.5,1.06435281773431,1451.11656047266,0,0,1214.052,CROPPED,DEMOL,LEAVE_OFF,Demol,0,TreeQsm
FSYL15,FSYL,0,539.9117,659,1.01043981518409,652.191243948493,0,0,539.9117,CROPPED,DEMOL,LEAVE_OFF,Demol,0,TreeQsm
FSYL2,FSYL,0,654.1058,743.7864,1.06228443654588,700.176312870113,0,0,654.1058,CROPPED,DEMOL,LEAVE_OFF,Demol,0,TreeQsm
FSYL3,FSYL,0,754.752,804.273,0.949521570383315,847.029730641423,0,0,754.752,CROPPED,DEMOL,LEAVE_OFF,Demol,0,TreeQsm
FSYL4,FSYL,0,583.8979,712.5,1.04325110923153,682.961171759345,0,0,583.8979,CROPPED,DEMOL,LEAVE_OFF,Demol,0,TreeQsm
FSYL5,FSYL,0,785.8494,902,0.99789828386641,903.89974066811,0,0,785.8494,CROPPED,DEMOL,LEAVE_OFF,Demol,0,TreeQsm
FSYL6,FSYL,0,697.3055,867.532,1.07324807383038,808.323835983057,0,0,697.3055,CROPPED,DEMOL,LEAVE_OFF,Demol,0,TreeQsm
FSYL7,FSYL,0,891.0674,1007.5,1.0444428694155,964.629114241383,0,0,891.0674,CROPPED,DEMOL,LEAVE_OFF,Demol,0,TreeQsm
FSYL8,FSYL,0,1150.311,1272,0.989084880110393,1286.03725077471,0,0,1150.311,CROPPED,DEMOL,LEAVE_OFF,Demol,0,TreeQsm
FSYL9,FSYL,0,1141.664,1262.7,0.998127756507074,1265.06851629774,0,0,1141.664,CROPPED,DEMOL,LEAVE_OFF,Demol,0,TreeQsm
LXDC1,LXDC,0,786.6015,1050,0.862027888936488,1218.05803904491,0,0,786.6015,CROPPED,DEMOL,LEAVE_OFF,Demol,0,TreeQsm
LXDC2,LXDC,0,511.9204,544,0.856563900079316,635.095641959259,0,0,511.9204,CROPPED,DEMOL,LEAVE_OFF,Demol,0,TreeQsm
LXDC3,LXDC,0,522.7537,481.5,0.882043432716492,545.89148577082,0,0,522.7537,CROPPED,DEMOL,LEAVE_OFF,Demol,0,TreeQsm
LXDC4,LXDC,0,452.8155,499,0.887488158786757,562.261022932587,0,0,452.8155,CROPPED,DEMOL,LEAVE_OFF,Demol,0,TreeQsm
LXDC5,LXDC,0,657.3591,758,0.836666464275691,905.976314774618,0,0,657.3591,CROPPED,DEMOL,LEAVE_OFF,Demol,0,TreeQsm
PSYLA1,PSYLA,0,446.7591,594.5,0.899270052738133,661.091735669217,0,0,446.7591,CROPPED,DEMOL,LEAVE_OFF,Demol,0,TreeQsm
PSYLA10,PSYLA,0,446.7502,492,0.830712906126154,592.262376534311,0,0,446.7502,CROPPED,DEMOL,LEAVE_OFF,Demol,0,TreeQsm
PSYLA11,PSYLA,0,560.2303,690.471,0.886078196440446,779.243866708108,0,0,560.2303,CROPPED,DEMOL,LEAVE_OFF,Demol,0,TreeQsm
PSYLA12,PSYLA,0,699.8865,859.9784,0.880507098579731,976.685368450926,0,0,699.8865,CROPPED,DEMOL,LEAVE_OFF,Demol,0,TreeQsm
PSYLA13,PSYLA,0,1087.26,1209.673,0.924707735077739,1308.16792605104,0,0,1087.26,CROPPED,DEMOL,LEAVE_OFF,Demol,0,TreeQsm
PSYLA14,PSYLA,0,565.4342,670.5,0.87003396116022,770.659571846903,0,0,565.4342,CROPPED,DEMOL,LEAVE_OFF,Demol,0,TreeQsm
PSYLA15,PSYLA,0,639.1232,813.672,0.897125728492694,906.976552068227,0,0,639.1232,CROPPED,DEMOL,LEAVE_OFF,Demol,0,TreeQsm
PSYLA2,PSYLA,0,792.1306,1084,0.903004892475824,1200.43646389105,0,0,792.1306,CROPPED,DEMOL,LEAVE_OFF,Demol,0,TreeQsm
PSYLA3,PSYLA,0,684.3682,968.652,0.888445805822874,1090.27696866984,0,0,684.3682,CROPPED,DEMOL,LEAVE_OFF,Demol,0,TreeQsm
PSYLA4,PSYLA,0,675.0959,854,0.895139186194388,954.041576071217,0,0,675.0959,CROPPED,DEMOL,LEAVE_OFF,Demol,0,TreeQsm
PSYLA5,PSYLA,0,872.3292,1083,0.858006838301509,1262.22770222191,0,0,872.3292,CROPPED,DEMOL,LEAVE_OFF,Demol,0,TreeQsm
PSYLA6,PSYLA,0,1054.664,1292.5,0.906477978739498,1425.84820626011,0,0,1054.664,CROPPED,DEMOL,LEAVE_OFF,Demol,0,TreeQsm
PSYLA7,PSYLA,0,793.0059,794,0.868171272969124,914.566082432721,0,0,793.0059,CROPPED,DEMOL,LEAVE_OFF,Demol,0,TreeQsm
PSYLA8,PSYLA,0,442.564,550.489,0.910817590496105,604.389952218818,0,0,442.564,CROPPED,DEMOL,LEAVE_OFF,Demol,0,TreeQsm
PSYLA9,PSYLA,0,385.8458,504,0.869144011881097,579.880886378298,0,0,385.8458,CROPPED,DEMOL,LEAVE_OFF,Demol,0,TreeQsm
PSYLB1,PSYLB,0,605.8799,672.5,0.904357658667934,743.621722616418,0,0,605.8799,CROPPED,DEMOL,LEAVE_OFF,Demol,0,TreeQsm
PSYLB10,PSYLB,0,594.2472,591.5,0.856689299919564,690.448684319434,0,0,594.2472,CROPPED,DEMOL,LEAVE_OFF,Demol,0,TreeQsm
PSYLB11,PSYLB,0,2215.655,2428,0.859997431393708,2823.26424634222,0,0,2215.655,CROPPED,DEMOL,LEAVE_OFF,Demol,0,TreeQsm
PSYLB12,PSYLB,0,962.2311,1068.5,0.857614162427529,1245.89826848888,0,0,962.2311,CROPPED,DEMOL,LEAVE_OFF,Demol,0,TreeQsm
PSYLB13,PSYLB,0,494.5125,471.14,0.813963472239766,578.822043086988,0,0,494.5125,CROPPED,DEMOL,LEAVE_OFF,Demol,0,TreeQsm
PSYLB14,PSYLB,0,1823.919,1892.687,0.894894275098785,2114.98391783887,0,0,1823.919,CROPPED,DEMOL,LEAVE_OFF,Demol,0,TreeQsm
PSYLB15,PSYLB,0,108.1602,92.5,0.785590855388656,117.745769780171,0,0,108.1602,CROPPED,DEMOL,LEAVE_OFF,Demol,0,TreeQsm
PSYLB2,PSYLB,0,1269.313,1398,0.911912227843444,1533.04227897688,0,0,1269.313,CROPPED,DEMOL,LEAVE_OFF,Demol,0,TreeQsm
PSYLB3,PSYLB,0,2209.281,2216,0.848797648578859,2610.75181312089,0,0,2209.281,CROPPED,DEMOL,LEAVE_OFF,Demol,0,TreeQsm
PSYLB4,PSYLB,0,1205.502,1226.704,0.888107240992577,1381.25661336687,0,0,1205.502,CROPPED,DEMOL,LEAVE_OFF,Demol,0,TreeQsm
PSYLB5,PSYLB,0,491.9461,519.5,0.864692699335578,600.791472391497,0,0,491.9461,CROPPED,DEMOL,LEAVE_OFF,Demol,0,TreeQsm
PSYLB6,PSYLB,0,820.9727,867.657,0.873886370096483,992.871647493718,0,0,820.9727,CROPPED,DEMOL,LEAVE_OFF,Demol,0,TreeQsm
PSYLB7,PSYLB,0,783.4409,805.5,0.873678990759346,921.963339532647,0,0,783.4409,CROPPED,DEMOL,LEAVE_OFF,Demol,0,TreeQsm
PSYLB8,PSYLB,0,296.1635,317,0.898711658670557,352.72714773605,0,0,296.1635,CROPPED,DEMOL,LEAVE_OFF,Demol,0,TreeQsm
PSYLB9,PSYLB,0,259.5025,241.554,0.858732641163567,281.291275562437,0,0,259.5025,CROPPED,DEMOL,LEAVE_OFF,Demol,0,TreeQsm
FEXC1,FEXC,0,0,705.5,0.859470687185182,820.854056478127,0,0,989.577099609375,FULL,DEMOL,LEAVE_OFF,Demol,0,TreeQsm
FEXC10,FEXC,0,0,61.5,0.735507871286317,83.6156925043422,0,0,115.467603302002,FULL,DEMOL,LEAVE_OFF,Demol,0,TreeQsm
FEXC11,FEXC,0,0,474,0.891345081039244,531.780575315848,0,0,675.922491455078,FULL,DEMOL,LEAVE_OFF,Demol,0,TreeQsm
FEXC13,FEXC,0,0,904,0.906844976737554,996.862774994036,0,0,1181.97863769531,FULL,DEMOL,LEAVE_OFF,Demol,0,TreeQsm
FEXC14,FEXC,0,0,1444,0.904342034005068,1596.7409958873,0,0,2402.2337890625,FULL,DEMOL,LEAVE_OFF,Demol,0,TreeQsm
FEXC15,FEXC,0,0,905.872,0.865152853828537,1047.06584043648,0,0,1392.00775146484,FULL,DEMOL,LEAVE_OFF,Demol,0,TreeQsm
FEXC16,FEXC,0,0,406,0.8155662318134,497.81364671912,0,0,558.187139892578,FULL,DEMOL,LEAVE_OFF,Demol,0,TreeQsm
FEXC2,FEXC,0,0,416.101,0.844148599665061,492.923876394629,0,0,604.363500976562,FULL,DEMOL,LEAVE_OFF,Demol,0,TreeQsm
FEXC3,FEXC,0,0,239.698,0.816845355345099,293.44354893067,0,0,365.896353149414,FULL,DEMOL,LEAVE_OFF,Demol,0,TreeQsm
FEXC4,FEXC,0,0,266.02,0.769786134429185,345.576502488266,0,0,546.435327148438,FULL,DEMOL,LEAVE_OFF,Demol,0,TreeQsm
FEXC5,FEXC,0,0,61.946,0.797115650331053,77.7126882081326,0,0,94.0286674499512,FULL,DEMOL,LEAVE_OFF,Demol,0,TreeQsm
FEXC6,FEXC,0,0,543,0.851895110734517,637.402413933115,0,0,748.53837890625,FULL,DEMOL,LEAVE_OFF,Demol,0,TreeQsm
FEXC7,FEXC,0,0,77.055,0.782105152000416,98.5225577442035,0,0,133.756147766113,FULL,DEMOL,LEAVE_OFF,Demol,0,TreeQsm
FEXC8,FEXC,0,0,789.621,0.833145027455031,947.759362390985,0,0,1579.99996337891,FULL,DEMOL,LEAVE_OFF,Demol,0,TreeQsm
FEXC9,FEXC,0,0,300.093,0.850291350715112,352.929616122304,0,0,545.711883544922,FULL,DEMOL,LEAVE_OFF,Demol,0,TreeQsm
FSYL1,FSYL,0,0,939.5,1.08208979546957,868.227391047811,0,0,1098.83374023438,FULL,DEMOL,LEAVE_OFF,Demol,0,TreeQsm
FSYL10,FSYL,0,0,2102.5,0.999697295800099,2103.13662829035,0,0,2287.40180664063,FULL,DEMOL,LEAVE_OFF,Demol,0,TreeQsm
FSYL11,FSYL,0,0,1067.821,1.05001843006716,1016.954530914,0,0,1145.29555664062,FULL,DEMOL,LEAVE_OFF,Demol,0,TreeQsm
FSYL12,FSYL,0,0,877.5,1.03225401323297,850.081461298186,0,0,1217.52346191406,FULL,DEMOL,LEAVE_OFF,Demol,0,TreeQsm
FSYL13,FSYL,0,0,1926.012,1.07556152730859,1790.70369392955,0,0,2200.36391601562,FULL,DEMOL,LEAVE_OFF,Demol,0,TreeQsm
FSYL14,FSYL,0,0,1544.5,1.06435281773431,1451.11656047266,0,0,1793.27821044922,FULL,DEMOL,LEAVE_OFF,Demol,0,TreeQsm
FSYL15,FSYL,0,0,659,1.01043981518409,652.191243948493,0,0,712.510223388672,FULL,DEMOL,LEAVE_OFF,Demol,0,TreeQsm
FSYL2,FSYL,0,0,743.7864,1.06228443654588,700.176312870113,0,0,898.549609375,FULL,DEMOL,LEAVE_OFF,Demol,0,TreeQsm
FSYL3,FSYL,0,0,804.273,0.949521570383315,847.029730641423,0,0,954.450836181641,FULL,DEMOL,LEAVE_OFF,Demol,0,TreeQsm
FSYL4,FSYL,0,0,712.5,1.04325110923153,682.961171759345,0,0,862.715942382813,FULL,DEMOL,LEAVE_OFF,Demol,0,TreeQsm
FSYL5,FSYL,0,0,902,0.99789828386641,903.89974066811,0,0,1148.20883789063,FULL,DEMOL,LEAVE_OFF,Demol,0,TreeQsm
FSYL6,FSYL,0,0,867.532,1.07324807383038,808.323835983057,0,0,1010.90488891602,FULL,DEMOL,LEAVE_OFF,Demol,0,TreeQsm
FSYL7,FSYL,0,0,1007.5,1.0444428694155,964.629114241383,0,0,1147.13266601563,FULL,DEMOL,LEAVE_OFF,Demol,0,TreeQsm
FSYL8,FSYL,0,0,1272,0.989084880110393,1286.03725077471,0,0,1458.71695556641,FULL,DEMOL,LEAVE_OFF,Demol,0,TreeQsm
FSYL9,FSYL,0,0,1262.7,0.998127756507074,1265.06851629774,0,0,1626.92353515625,FULL,DEMOL,LEAVE_OFF,Demol,0,TreeQsm
LXDC1,LXDC,0,0,1050,0.862027888936488,1218.05803904491,0,0,2441.25715332031,FULL,DEMOL,LEAVE_OFF,Demol,0,TreeQsm
LXDC2,LXDC,0,0,544,0.856563900079316,635.095641959259,0,0,1237.67232666016,FULL,DEMOL,LEAVE_OFF,Demol,0,TreeQsm
LXDC3,LXDC,0,0,481.5,0.882043432716492,545.89148577082,0,0,1463.37088623047,FULL,DEMOL,LEAVE_OFF,Demol,0,TreeQsm
LXDC4,LXDC,0,0,499,0.887488158786757,562.261022932587,0,0,1111.24416503906,FULL,DEMOL,LEAVE_OFF,Demol,0,TreeQsm
LXDC5,LXDC,0,0,758,0.836666464275691,905.976314774618,0,0,1906.41180419922,FULL,DEMOL,LEAVE_OFF,Demol,0,TreeQsm
PSYLA1,PSYLA,0,0,594.5,0.899270052738133,661.091735669217,0,0,762.048583984375,FULL,DEMOL,LEAVE_OFF,Demol,0,TreeQsm
PSYLA10,PSYLA,0,0,492,0.830712906126154,592.262376534311,0,0,575.471508789062,FULL,DEMOL,LEAVE_OFF,Demol,0,TreeQsm
PSYLA11,PSYLA,0,0,690.471,0.886078196440446,779.243866708108,0,0,819.258001708984,FULL,DEMOL,LEAVE_OFF,Demol,0,TreeQsm
PSYLA12,PSYLA,0,0,859.9784,0.880507098579731,976.685368450926,0,0,943.003045654297,FULL,DEMOL,LEAVE_OFF,Demol,0,TreeQsm
PSYLA13,PSYLA,0,0,1209.673,0.924707735077739,1308.16792605104,0,0,1261.17570800781,FULL,DEMOL,LEAVE_OFF,Demol,0,TreeQsm
PSYLA14,PSYLA,0,0,670.5,0.87003396116022,770.659571846903,0,0,775.720794677734,FULL,DEMOL,LEAVE_OFF,Demol,0,TreeQsm
PSYLA15,PSYLA,0,0,813.672,0.897125728492694,906.976552068227,0,0,909.932739257813,FULL,DEMOL,LEAVE_OFF,Demol,0,TreeQsm
PSYLA2,PSYLA,0,0,1084,0.903004892475824,1200.43646389105,0,0,1294.43371582031,FULL,DEMOL,LEAVE_OFF,Demol,0,TreeQsm
PSYLA3,PSYLA,0,0,968.652,0.888445805822874,1090.27696866984,0,0,1025.69494018555,FULL,DEMOL,LEAVE_OFF,Demol,0,TreeQsm
PSYLA4,PSYLA,0,0,854,0.895139186194388,954.041576071217,0,0,909.408471679688,FULL,DEMOL,LEAVE_OFF,Demol,0,TreeQsm
PSYLA5,PSYLA,0,0,1083,0.858006838301509,1262.22770222191,0,0,1302.80599365234,FULL,DEMOL,LEAVE_OFF,Demol,0,TreeQsm
PSYLA6,PSYLA,0,0,1292.5,0.906477978739498,1425.84820626011,0,0,1601.29287109375,FULL,DEMOL,LEAVE_OFF,Demol,0,TreeQsm
PSYLA7,PSYLA,0,0,794,0.868171272969124,914.566082432721,0,0,1077.05776367187,FULL,DEMOL,LEAVE_OFF,Demol,0,TreeQsm
PSYLA8,PSYLA,0,0,550.489,0.910817590496105,604.389952218818,0,0,620.587640380859,FULL,DEMOL,LEAVE_OFF,Demol,0,TreeQsm
PSYLA9,PSYLA,0,0,504,0.869144011881097,579.880886378298,0,0,596.859454345703,FULL,DEMOL,LEAVE_OFF,Demol,0,TreeQsm
PSYLB1,PSYLB,0,0,672.5,0.904357658667934,743.621722616418,0,0,818.710852050781,FULL,DEMOL,LEAVE_OFF,Demol,0,TreeQsm
PSYLB10,PSYLB,0,0,591.5,0.856689299919564,690.448684319434,0,0,748.21220703125,FULL,DEMOL,LEAVE_OFF,Demol,0,TreeQsm
PSYLB11,PSYLB,0,0,2428,0.859997431393708,2823.26424634222,0,0,2984.57419433594,FULL,DEMOL,LEAVE_OFF,Demol,0,TreeQsm
PSYLB12,PSYLB,0,0,1068.5,0.857614162427529,1245.89826848888,0,0,1345.52171630859,FULL,DEMOL,LEAVE_OFF,Demol,0,TreeQsm
PSYLB13,PSYLB,0,0,471.14,0.813963472239766,578.822043086988,0,0,613.025250244141,FULL,DEMOL,LEAVE_OFF,Demol,0,TreeQsm
PSYLB14,PSYLB,0,0,1892.687,0.894894275098785,2114.98391783887,0,0,2294.42893066406,FULL,DEMOL,LEAVE_OFF,Demol,0,TreeQsm
PSYLB15,PSYLB,0,0,92.5,0.785590855388656,117.745769780171,0,0,186.806127929688,FULL,DEMOL,LEAVE_OFF,Demol,0,TreeQsm
PSYLB2,PSYLB,0,0,1398,0.911912227843444,1533.04227897688,0,0,1752.15778808594,FULL,DEMOL,LEAVE_OFF,Demol,0,TreeQsm
PSYLB3,PSYLB,0,0,2216,0.848797648578859,2610.75181312089,0,0,3094.91953125,FULL,DEMOL,LEAVE_OFF,Demol,0,TreeQsm
PSYLB4,PSYLB,0,0,1226.704,0.888107240992577,1381.25661336687,0,0,1543.92604980469,FULL,DEMOL,LEAVE_OFF,Demol,0,TreeQsm
PSYLB5,PSYLB,0,0,519.5,0.864692699335578,600.791472391497,0,0,588.927893066406,FULL,DEMOL,LEAVE_OFF,Demol,0,TreeQsm
PSYLB6,PSYLB,0,0,867.657,0.873886370096483,992.871647493718,0,0,1019.38606567383,FULL,DEMOL,LEAVE_OFF,Demol,0,TreeQsm
PSYLB7,PSYLB,0,0,805.5,0.873678990759346,921.963339532647,0,0,1152.59533691406,FULL,DEMOL,LEAVE_OFF,Demol,0,TreeQsm
PSYLB8,PSYLB,0,0,317,0.898711658670557,352.72714773605,0,0,403.961346435547,FULL,DEMOL,LEAVE_OFF,Demol,0,TreeQsm
PSYLB9,PSYLB,0,0,241.554,0.858732641163567,281.291275562437,0,0,293.408724975586,FULL,DEMOL,LEAVE_OFF,Demol,0,TreeQsm
Ery_01.asc,Erythrophleum_fordii,405.0142857,405.0142857,283.51,0.7,405.0142857,15.36518,0.225642,474.856,FULL,SEMI AUTO,LEAVE_OFF,Hackenberg,22.4,SimpleForestRp
Ery_02.asc,Erythrophleum_fordii,323.2876712,323.2876712,236,0.73,323.2876712,17.069647,0.191988,381.16,FULL,SEMI AUTO,LEAVE_OFF,Hackenberg,19.5,SimpleForestRp
Ery_03.asc,Erythrophleum_fordii,382.5142857,382.5142857,267.76,0.7,382.5142857,14.188688,0.190934,362.477,FULL,SEMI AUTO,LEAVE_OFF,Hackenberg,19.75,SimpleForestRp
Ery_04.asc,Erythrophleum_fordii,439.173913,439.173913,303.03,0.69,439.173913,16.589492,0.221874,564.374,FULL,SEMI AUTO,LEAVE_OFF,Hackenberg,21.1,SimpleForestRp
Ery_05.asc,Erythrophleum_fordii,754.2753623,754.2753623,520.45,0.69,754.2753623,17.713204,0.25009,662.335,FULL,SEMI AUTO,LEAVE_OFF,Hackenberg,26,SimpleForestRp
Ery_06.asc,Erythrophleum_fordii,210.4324324,210.4324324,155.72,0.74,210.4324324,13.301968,0.172442,208.465,FULL,SEMI AUTO,LEAVE_OFF,Hackenberg,17.7,SimpleForestRp
Ery_07.asc,Erythrophleum_fordii,360.0985915,360.0985915,255.67,0.71,360.0985915,14.235733,0.189272,338.75,FULL,SEMI AUTO,LEAVE_OFF,Hackenberg,18.2,SimpleForestRp
Ery_08.asc,Erythrophleum_fordii,597.8115942,597.8115942,412.49,0.69,597.8115942,14.041195,0.240856,500.755,FULL,SEMI AUTO,LEAVE_OFF,Hackenberg,23.1,SimpleForestRp
Ery_09.asc,Erythrophleum_fordii,632.7142857,632.7142857,442.9,0.7,632.7142857,18.772279,0.233696,597.254,FULL,SEMI AUTO,LEAVE_OFF,Hackenberg,23.25,SimpleForestRp
Ery_10.asc,Erythrophleum_fordii,748.8714286,748.8714286,524.21,0.7,748.8714286,18.758336,0.248618,667.364,FULL,SEMI AUTO,LEAVE_OFF,Hackenberg,26,SimpleForestRp
Ery_11.asc,Erythrophleum_fordii,514.8285714,514.8285714,360.38,0.7,514.8285714,17.513662,0.214436,537.362,FULL,SEMI AUTO,LEAVE_OFF,Hackenberg,21.75,SimpleForestRp
Ery_12.asc,Erythrophleum_fordii,443.6197183,443.6197183,314.97,0.71,443.6197183,17.343791,0.209092,439.555,FULL,SEMI AUTO,LEAVE_OFF,Hackenberg,21,SimpleForestRp
Q01.asc,Quercus_petraea,865.6981132,865.6981132,458.82,0.53,865.6981132,24.31698,0.252514,732.604,FULL,SEMI AUTO,LEAVE_OFF,Hackenberg,26,SimpleForestRp
Q02.asc,Quercus_petraea,598.1346154,598.1346154,311.03,0.52,598.1346154,25.18363,0.252218,826.466,FULL,SEMI AUTO,LEAVE_OFF,Hackenberg,24.3,SimpleForestRp
Q03.asc,Quercus_petraea,1145.3076923,1145.3076923,595.32,0.52,1145.3076923,26.854396,0.323906,1420.932,FULL,SEMI AUTO,LEAVE_OFF,Hackenberg,32,SimpleForestRp
Q04.asc,Quercus_petraea,958.4444444,958.4444444,517.56,0.54,958.4444444,26.161319,0.271154,1019.096,FULL,SEMI AUTO,LEAVE_OFF,Hackenberg,27.8,SimpleForestRp
Q05.asc,Quercus_petraea,777.8113208,777.8113208,412.24,0.53,777.8113208,23.002166,0.29734,1030.832,FULL,SEMI AUTO,LEAVE_OFF,Hackenberg,29.1,SimpleForestRp
Q06.asc,Quercus_petraea,919.0980392,919.0980392,468.74,0.51,919.0980392,24.69681,0.268248,859.296,FULL,SEMI AUTO,LEAVE_OFF,Hackenberg,28.3,SimpleForestRp
Q07.asc,Quercus_petraea,704.0192308,704.0192308,366.09,0.52,704.0192308,26.370292,0.254114,898.241,FULL,SEMI AUTO,LEAVE_OFF,Hackenberg,25,SimpleForestRp
Q08.asc,Quercus_petraea,1241,1241,632.91,0.51,1241,25.168037,0.308704,1045.045,FULL,SEMI AUTO,LEAVE_OFF,Hackenberg,31,SimpleForestRp
Q09.asc,Quercus_petraea,1118.7692308,1118.7692308,581.76,0.52,1118.7692308,29.884805,0.305276,1353.176,FULL,SEMI AUTO,LEAVE_OFF,Hackenberg,30.2,SimpleForestRp
Q10.asc,Quercus_petraea,791.9615385,791.9615385,411.82,0.52,791.9615385,21.977618,0.272812,980.755,FULL,SEMI AUTO,LEAVE_OFF,Hackenberg,27.1,SimpleForestRp
Q11.asc,Quercus_petraea,886.5882353,886.5882353,452.16,0.51,886.5882353,23.101982,0.263596,915.911,FULL,SEMI AUTO,LEAVE_OFF,Hackenberg,27,SimpleForestRp
Q12.asc,Quercus_petraea,1112.3773585,1112.3773585,589.56,0.53,1112.3773585,24.787277,0.272148,1374.661,FULL,SEMI AUTO,LEAVE_OFF,Hackenberg,30.8,SimpleForestRp
Pinus01.asc,Pinus_massoniana,722.974359,722.974359,281.96,0.39,722.974359,15.558063,0.287084,670.887,FULL,AUTO,LEAVE_OFF,Hackenberg,23,SimpleForestRp
Pinus02.asc,Pinus_massoniana,284.375,284.375,113.75,0.4,284.375,15.315825,0.186498,310.508,FULL,AUTO,LEAVE_OFF,Hackenberg,16.75,SimpleForestRp
Pinus03.asc,Pinus_massoniana,336.3913043,336.3913043,154.74,0.46,336.3913043,15.742417,0.21357,419.527,FULL,AUTO,LEAVE_OFF,Hackenberg,22.4,SimpleForestRp
Pinus04.asc,Pinus_massoniana,340.4634146,340.4634146,139.59,0.41,340.4634146,16.708084,0.212932,386.936,FULL,AUTO,LEAVE_OFF,Hackenberg,20.25,SimpleForestRp
Pinus05.asc,Pinus_massoniana,403.0434783,403.0434783,185.4,0.46,403.0434783,14.615038,0.239978,501.205,FULL,AUTO,LEAVE_OFF,Hackenberg,21.4,SimpleForestRp
Pinus06.asc,Pinus_massoniana,516.3170732,516.3170732,211.69,0.41,516.3170732,15.531921,0.27417,641.037,FULL,AUTO,LEAVE_OFF,Hackenberg,26.15,SimpleForestRp
Pinus07.asc,Pinus_massoniana,364.3111111,364.3111111,163.94,0.45,364.3111111,11.919195,0.252114,461.984,FULL,AUTO,LEAVE_OFF,Hackenberg,22,SimpleForestRp
Pinus08.asc,Pinus_massoniana,93.974359,93.974359,36.65,0.39,93.974359,12.543805,0.14481,203.173,FULL,AUTO,LEAVE_OFF,Hackenberg,13.3,SimpleForestRp
Pinus09.asc,Pinus_massoniana,379.804878,379.804878,155.72,0.41,379.804878,13.540242,0.214848,416.99,FULL,AUTO,LEAVE_OFF,Hackenberg,19,SimpleForestRp
Pinus10.asc,Pinus_massoniana,352.5961538,352.5961538,183.35,0.52,352.5961538,14.918899,0.22777,483.534,FULL,AUTO,LEAVE_OFF,Hackenberg,23.25,SimpleForestRp
Pinus11.asc,Pinus_massoniana,558,558,234.36,0.42,558,14.867608,0.244812,510.675,FULL,AUTO,LEAVE_OFF,Hackenberg,25.25,SimpleForestRp
Pinus12.asc,Pinus_massoniana,298.7804878,298.7804878,122.5,0.41,298.7804878,17.377899,0.192156,295.9,FULL,AUTO,LEAVE_OFF,Hackenberg,17.75,SimpleForestRp
Ery_01.asc,Erythrophleum_fordii,405.0142857,405.0142857,283.51,0.7,405.0142857,15.36518,0.225642,461.31051,CROPPED,SEMI AUTO,LEAVE_OFF,Hackenberg,22.4,SimpleForestRp
Ery_02.asc,Erythrophleum_fordii,323.2876712,323.2876712,236,0.73,323.2876712,17.069647,0.191988,344.38375,CROPPED,SEMI AUTO,LEAVE_OFF,Hackenberg,19.5,SimpleForestRp
Ery_03.asc,Erythrophleum_fordii,382.5142857,382.5142857,267.76,0.7,382.5142857,14.188688,0.190934,345.3907,CROPPED,SEMI AUTO,LEAVE_OFF,Hackenberg,19.75,SimpleForestRp
Ery_04.asc,Erythrophleum_fordii,439.173913,439.173913,303.03,0.69,439.173913,16.589492,0.221874,539.54299,CROPPED,SEMI AUTO,LEAVE_OFF,Hackenberg,21.1,SimpleForestRp
Ery_05.asc,Erythrophleum_fordii,754.2753623,754.2753623,520.45,0.69,754.2753623,17.713204,0.25009,735.34065,CROPPED,SEMI AUTO,LEAVE_OFF,Hackenberg,26,SimpleForestRp
Ery_06.asc,Erythrophleum_fordii,210.4324324,210.4324324,155.72,0.74,210.4324324,13.301968,0.172442,245.5314,CROPPED,SEMI AUTO,LEAVE_OFF,Hackenberg,17.7,SimpleForestRp
Ery_07.asc,Erythrophleum_fordii,360.0985915,360.0985915,255.67,0.71,360.0985915,14.235733,0.189272,344.55911,CROPPED,SEMI AUTO,LEAVE_OFF,Hackenberg,18.2,SimpleForestRp
Ery_08.asc,Erythrophleum_fordii,597.8115942,597.8115942,412.49,0.69,597.8115942,14.041195,0.240856,575.36575,CROPPED,SEMI AUTO,LEAVE_OFF,Hackenberg,23.1,SimpleForestRp
Ery_09.asc,Erythrophleum_fordii,632.7142857,632.7142857,442.9,0.7,632.7142857,18.772279,0.233696,679.70495,CROPPED,SEMI AUTO,LEAVE_OFF,Hackenberg,23.25,SimpleForestRp
Ery_10.asc,Erythrophleum_fordii,748.8714286,748.8714286,524.21,0.7,748.8714286,18.758336,0.248618,714.08784,CROPPED,SEMI AUTO,LEAVE_OFF,Hackenberg,26,SimpleForestRp
Ery_11.asc,Erythrophleum_fordii,514.8285714,514.8285714,360.38,0.7,514.8285714,17.513662,0.214436,563.14809,CROPPED,SEMI AUTO,LEAVE_OFF,Hackenberg,21.75,SimpleForestRp
Ery_12.asc,Erythrophleum_fordii,443.6197183,443.6197183,314.97,0.71,443.6197183,17.343791,0.209092,464.11764,CROPPED,SEMI AUTO,LEAVE_OFF,Hackenberg,21,SimpleForestRp
Q01.asc,Quercus_petraea,865.6981132,865.6981132,458.82,0.53,865.6981132,15.558063,0.287084,677.76534,CROPPED,SEMI AUTO,LEAVE_OFF,Hackenberg,26,SimpleForestRp
Q02.asc,Quercus_petraea,598.1346154,598.1346154,311.03,0.52,598.1346154,15.315825,0.186498,311.41038,CROPPED,SEMI AUTO,LEAVE_OFF,Hackenberg,24.3,SimpleForestRp
Q03.asc,Quercus_petraea,1145.3076923,1145.3076923,595.32,0.52,1145.3076923,15.742417,0.21357,418.27626,CROPPED,SEMI AUTO,LEAVE_OFF,Hackenberg,32,SimpleForestRp
Q04.asc,Quercus_petraea,958.4444444,958.4444444,517.56,0.54,958.4444444,16.708084,0.212932,366.09732,CROPPED,SEMI AUTO,LEAVE_OFF,Hackenberg,27.8,SimpleForestRp
Q05.asc,Quercus_petraea,777.8113208,777.8113208,412.24,0.53,777.8113208,14.615038,0.239978,495.21942,CROPPED,SEMI AUTO,LEAVE_OFF,Hackenberg,29.1,SimpleForestRp
Q06.asc,Quercus_petraea,919.0980392,919.0980392,468.74,0.51,919.0980392,15.531921,0.27417,607.36464,CROPPED,SEMI AUTO,LEAVE_OFF,Hackenberg,28.3,SimpleForestRp
Q07.asc,Quercus_petraea,704.0192308,704.0192308,366.09,0.52,704.0192308,11.919195,0.252114,466.49598,CROPPED,SEMI AUTO,LEAVE_OFF,Hackenberg,25,SimpleForestRp
Q08.asc,Quercus_petraea,1241,1241,632.91,0.51,1241,12.543805,0.14481,199.22868,CROPPED,SEMI AUTO,LEAVE_OFF,Hackenberg,31,SimpleForestRp
Q09.asc,Quercus_petraea,1118.7692308,1118.7692308,581.76,0.52,1118.7692308,13.540242,0.214848,418.84854,CROPPED,SEMI AUTO,LEAVE_OFF,Hackenberg,30.2,SimpleForestRp
Q10.asc,Quercus_petraea,791.9615385,791.9615385,411.82,0.52,791.9615385,14.918899,0.22777,482.2086,CROPPED,SEMI AUTO,LEAVE_OFF,Hackenberg,27.1,SimpleForestRp
Q11.asc,Quercus_petraea,886.5882353,886.5882353,452.16,0.51,886.5882353,14.867608,0.244812,528.68298,CROPPED,SEMI AUTO,LEAVE_OFF,Hackenberg,27,SimpleForestRp
Q12.asc,Quercus_petraea,1112.3773585,1112.3773585,589.56,0.53,1112.3773585,17.377899,0.192156,309.37662,CROPPED,SEMI AUTO,LEAVE_OFF,Hackenberg,30.8,SimpleForestRp
Pinus01.asc,Pinus_massoniana,722.974359,722.974359,281.96,0.39,722.974359,24.31698,0.252514,806.955,CROPPED,AUTO,LEAVE_OFF,Hackenberg,23,SimpleForestRp
Pinus02.asc,Pinus_massoniana,284.375,284.375,113.75,0.4,284.375,25.18363,0.252218,946.14,CROPPED,AUTO,LEAVE_OFF,Hackenberg,16.75,SimpleForestRp
Pinus03.asc,Pinus_massoniana,336.3913043,336.3913043,154.74,0.46,336.3913043,26.854396,0.323906,1621.655,CROPPED,AUTO,LEAVE_OFF,Hackenberg,22.4,SimpleForestRp
Pinus04.asc,Pinus_massoniana,340.4634146,340.4634146,139.59,0.41,340.4634146,26.161319,0.271154,1187.75875,CROPPED,AUTO,LEAVE_OFF,Hackenberg,20.25,SimpleForestRp
Pinus05.asc,Pinus_massoniana,403.0434783,403.0434783,185.4,0.46,403.0434783,23.002166,0.29734,1160.0225,CROPPED,AUTO,LEAVE_OFF,Hackenberg,21.4,SimpleForestRp
Pinus06.asc,Pinus_massoniana,516.3170732,516.3170732,211.69,0.41,516.3170732,24.69681,0.268248,1011.34625,CROPPED,AUTO,LEAVE_OFF,Hackenberg,26.15,SimpleForestRp
Pinus07.asc,Pinus_massoniana,364.3111111,364.3111111,163.94,0.45,364.3111111,26.370292,0.254114,997.72,CROPPED,AUTO,LEAVE_OFF,Hackenberg,22,SimpleForestRp
Pinus08.asc,Pinus_massoniana,93.974359,93.974359,36.65,0.39,93.974359,25.168037,0.308704,1155.08125,CROPPED,AUTO,LEAVE_OFF,Hackenberg,13.3,SimpleForestRp
Pinus09.asc,Pinus_massoniana,379.804878,379.804878,155.72,0.41,379.804878,29.884805,0.305276,1554.035,CROPPED,AUTO,LEAVE_OFF,Hackenberg,19,SimpleForestRp
Pinus10.asc,Pinus_massoniana,352.5961538,352.5961538,183.35,0.52,352.5961538,21.977618,0.272812,1071.61875,CROPPED,AUTO,LEAVE_OFF,Hackenberg,23.25,SimpleForestRp
Pinus11.asc,Pinus_massoniana,558,558,234.36,0.42,558,23.101982,0.263596,987.12375,CROPPED,AUTO,LEAVE_OFF,Hackenberg,25.25,SimpleForestRp
Pinus12.asc,Pinus_massoniana,298.7804878,298.7804878,122.5,0.41,298.7804878,24.787277,0.272148,1605.895,CROPPED,AUTO,LEAVE_OFF,Hackenberg,17.75,SimpleForestRp
GUY01_000,GUY,0,18326.9366100238,14478.2799219188,0.79,18326.9366100238,23.817276,0,11089.772,CROPPED,SEMI AUTO,LEAVE_OFF,Gonzales,0,SimpleForestRp
GUY02_000,GUY,0,6156.74250886341,923.511376329512,0.15,6156.74250886341,26.466764,0,4961.87,CROPPED,SEMI AUTO,LEAVE_OFF,Gonzales,0,SimpleForestRp
GUY03_000,GUY,0,9716.49125347681,7676.02809024668,0.79,9716.49125347681,20.329844,0,5680.132,CROPPED,SEMI AUTO,LEAVE_OFF,Gonzales,0,SimpleForestRp
GUY04_000,GUY,0,10968.6791914777,8665.25656126735,0.789999999999997,10968.6791914777,23.716419,0,7530.13,CROPPED,SEMI AUTO,LEAVE_OFF,Gonzales,0,SimpleForestRp
GUY05_000,GUY,0,11400.0554676654,9006.04381945565,0.789999999999999,11400.0554676654,25.523966,0,7155.853,CROPPED,SEMI AUTO,LEAVE_OFF,Gonzales,0,SimpleForestRp
GUY06_000,GUY,0,14116.9090144266,11152.358121397,0.789999999999999,14116.9090144266,23.216759,0,7524.824,CROPPED,SEMI AUTO,LEAVE_OFF,Gonzales,0,SimpleForestRp
GUY07_000,GUY,0,20442.3638001208,16149.4674020954,0.789999999999999,20442.3638001208,25.244907,0,14048.284,CROPPED,SEMI AUTO,LEAVE_OFF,Gonzales,0,SimpleForestRp
GUY08_000,GUY,0,12936.4412008321,10219.7885486574,0.790000000000003,12936.4412008321,23.307056,0,12432.225,CROPPED,SEMI AUTO,LEAVE_OFF,Gonzales,0,SimpleForestRp
GUY09_000,GUY,0,27937.9391228556,14807.1077351135,0.530000000000001,27937.9391228556,28.81776,0,16248.401,CROPPED,SEMI AUTO,LEAVE_OFF,Gonzales,0,SimpleForestRp
GUY10_000,GUY,0,9626.82928977065,7123.85367443028,0.74,9626.82928977065,23.736499,0,7750.317,CROPPED,SEMI AUTO,LEAVE_OFF,Gonzales,0,SimpleForestRp
IND01_054,IND,0,1716.9359882352,1047.33095282347,0.609999999999999,1716.9359882352,17.205287,0,1851.552,CROPPED,SEMI AUTO,LEAVE_OFF,Gonzales,0,SimpleForestRp
IND02_067,IND,0,2653.98882321305,1618.93318215996,0.61,2653.98882321305,19.355472,0,3050.763,CROPPED,SEMI AUTO,LEAVE_OFF,Gonzales,0,SimpleForestRp
IND03_088,IND,0,5730.45553852762,3495.57787850185,0.61,5730.45553852762,16.481524,0,6272.815,CROPPED,SEMI AUTO,LEAVE_OFF,Gonzales,0,SimpleForestRp
IND04_109,IND,0,1652.16705976373,1387.82033020153,0.839999999999998,1652.16705976373,17.81067,0,1793.517,CROPPED,SEMI AUTO,LEAVE_OFF,Gonzales,0,SimpleForestRp
IND05_080,IND,0,1040.88906952357,658.912446346903,0.633028500000002,1040.88906952357,16.042186,0,1007.642,CROPPED,SEMI AUTO,LEAVE_OFF,Gonzales,0,SimpleForestRp
IND07_083,IND,0,17762.8658283629,10144.5740877137,0.571111339000001,17762.8658283629,32.340064,0,19845.831,CROPPED,SEMI AUTO,LEAVE_OFF,Gonzales,0,SimpleForestRp
IND08_076,IND,0,5028.4817892078,3821.64615979793,0.76,5028.4817892078,19.06365,0,4922.699,CROPPED,SEMI AUTO,LEAVE_OFF,Gonzales,0,SimpleForestRp
IND09_067,IND,0,4245.31126475837,2462.28053355985,0.579999999999999,4245.31126475837,17.111768,0,3849.133,CROPPED,SEMI AUTO,LEAVE_OFF,Gonzales,0,SimpleForestRp
IND10_149,IND,0,2738.44977358673,1478.76287773683,0.539999999999998,2738.44977358673,18.076637,0,3398.464,CROPPED,SEMI AUTO,LEAVE_OFF,Gonzales,0,SimpleForestRp
IND11_104,IND,0,16802.9985828032,9596.38301983985,0.571111339000001,16802.9985828032,26.258957,0,15460.949,CROPPED,SEMI AUTO,LEAVE_OFF,Gonzales,0,SimpleForestRp
MDD01_006,MDD,0,43894.07228,30965.0489287159,0.705449445,43894.07228,25.314,0,33591.302,CROPPED,SEMI AUTO,LEAVE_OFF,Gonzales,0,SimpleForestRp
MDD02_013,MDD,0,11648.568626,6173.74137178,0.53,11648.568626,21.94148,0,10937.197,CROPPED,SEMI AUTO,LEAVE_OFF,Gonzales,0,SimpleForestRp
MDD03_011,MDD,0,13684.369224,7387.28198718063,0.539833577,13684.369224,26.446107,0,9446.513,CROPPED,SEMI AUTO,LEAVE_OFF,Gonzales,0,SimpleForestRp
MDD04_012,MDD,0,7040.397611,3800.64302584838,0.539833576999999,7040.397611,29.321689,0,6856.98,CROPPED,SEMI AUTO,LEAVE_OFF,Gonzales,0,SimpleForestRp
MDD05_007,MDD,0,28294.842513,21221.13188475,0.75,28294.842513,27.977997,0,27914.623,CROPPED,SEMI AUTO,LEAVE_OFF,Gonzales,0,SimpleForestRp
MDD06_007,MDD,0,32098.14524,17974.9613344,0.56,32098.14524,32.845629,0,22284.454,CROPPED,SEMI AUTO,LEAVE_OFF,Gonzales,0,SimpleForestRp
MDD07_010,MDD,0,22856.907708,12799.86831648,0.56,22856.907708,27.476288,0,15517.667,CROPPED,SEMI AUTO,LEAVE_OFF,Gonzales,0,SimpleForestRp
MDD08_006,MDD,0,20763.761025,14113.395328368,0.679712857,20763.761025,31.973378,0,15555.111,CROPPED,SEMI AUTO,LEAVE_OFF,Gonzales,0,SimpleForestRp
MDD09_007,MDD,0,7995.870481,4730.12852654409,0.591571429,7995.870481,25.537547,0,8100.343,CROPPED,SEMI AUTO,LEAVE_OFF,Gonzales,0,SimpleForestRp
